(module LOGO_EPIG_HI (layer F.Cu) (tedit 5EC77186)
  (fp_text reference G*** (at 0 -3.81) (layer F.SilkS) hide
    (effects (font (size 1.524 1.524) (thickness 0.3)))
  )
  (fp_text value LOGO (at 0 3.81) (layer F.SilkS) hide
    (effects (font (size 1.524 1.524) (thickness 0.3)))
  )
  (fp_poly (pts (xy -5.22726 1.375448) (xy -5.170275 1.387191) (xy -5.162575 1.407125) (xy -5.203686 1.435544)
    (xy -5.2197 1.443178) (xy -5.247151 1.457652) (xy -5.265274 1.47764) (xy -5.276005 1.51277)
    (xy -5.28128 1.572671) (xy -5.283033 1.666971) (xy -5.2832 1.759103) (xy -5.285107 1.89808)
    (xy -5.291523 1.99544) (xy -5.303494 2.060249) (xy -5.322067 2.101571) (xy -5.322842 2.102693)
    (xy -5.405464 2.179477) (xy -5.514153 2.223475) (xy -5.634112 2.232076) (xy -5.750542 2.20267)
    (xy -5.785484 2.184293) (xy -5.838522 2.145195) (xy -5.875558 2.097223) (xy -5.899295 2.031067)
    (xy -5.912438 1.937417) (xy -5.917689 1.806962) (xy -5.9182 1.727258) (xy -5.918925 1.605098)
    (xy -5.922185 1.52436) (xy -5.92961 1.475674) (xy -5.942828 1.449672) (xy -5.963469 1.436982)
    (xy -5.969 1.4351) (xy -6.015509 1.413274) (xy -6.014982 1.394296) (xy -5.971175 1.380043)
    (xy -5.887842 1.372392) (xy -5.842 1.3716) (xy -5.745484 1.375639) (xy -5.684051 1.386397)
    (xy -5.66216 1.401832) (xy -5.684268 1.419902) (xy -5.715 1.429759) (xy -5.736433 1.438822)
    (xy -5.750824 1.45856) (xy -5.759563 1.497733) (xy -5.76404 1.565103) (xy -5.765641 1.669432)
    (xy -5.7658 1.750222) (xy -5.764958 1.882473) (xy -5.761495 1.973839) (xy -5.754006 2.034216)
    (xy -5.741086 2.073505) (xy -5.721331 2.101604) (xy -5.715 2.1082) (xy -5.640649 2.14973)
    (xy -5.548482 2.155824) (xy -5.456967 2.126601) (xy -5.426326 2.106356) (xy -5.397587 2.081682)
    (xy -5.378534 2.054698) (xy -5.367179 2.015147) (xy -5.361531 1.95277) (xy -5.359603 1.857312)
    (xy -5.3594 1.76125) (xy -5.3594 1.468787) (xy -5.4356 1.440025) (xy -5.495341 1.411892)
    (xy -5.505337 1.391252) (xy -5.465424 1.377992) (xy -5.375434 1.372001) (xy -5.334 1.3716)
    (xy -5.22726 1.375448)) (layer F.SilkS) (width 0.01))
  (fp_poly (pts (xy -3.09114 1.629391) (xy -3.011548 1.6787) (xy -2.959999 1.756271) (xy -2.9464 1.832225)
    (xy -2.9464 1.905) (xy -3.33375 1.905) (xy -3.317799 1.98755) (xy -3.281307 2.075899)
    (xy -3.219136 2.133968) (xy -3.143187 2.15689) (xy -3.065364 2.139802) (xy -3.0226 2.1082)
    (xy -2.975306 2.066293) (xy -2.952244 2.063312) (xy -2.9464 2.095873) (xy -2.968144 2.136056)
    (xy -3.022243 2.17928) (xy -3.091997 2.215381) (xy -3.160709 2.234195) (xy -3.175 2.23501)
    (xy -3.240286 2.221765) (xy -3.312867 2.189593) (xy -3.317732 2.186696) (xy -3.395819 2.112256)
    (xy -3.439784 2.013855) (xy -3.450283 1.904421) (xy -3.427971 1.79688) (xy -3.426943 1.79513)
    (xy -3.323153 1.79513) (xy -3.319367 1.832558) (xy -3.272686 1.850427) (xy -3.2004 1.8542)
    (xy -3.124829 1.851934) (xy -3.087122 1.841192) (xy -3.074408 1.816052) (xy -3.0734 1.79578)
    (xy -3.093047 1.725652) (xy -3.141889 1.684759) (xy -3.204782 1.677544) (xy -3.26658 1.70845)
    (xy -3.28786 1.732851) (xy -3.323153 1.79513) (xy -3.426943 1.79513) (xy -3.373503 1.704158)
    (xy -3.290046 1.640356) (xy -3.187673 1.614543) (xy -3.09114 1.629391)) (layer F.SilkS) (width 0.01))
  (fp_poly (pts (xy -1.996906 1.622095) (xy -1.981442 1.641896) (xy -1.980854 1.648969) (xy -1.974096 1.705849)
    (xy -1.965191 1.74625) (xy -1.963559 1.792747) (xy -1.984915 1.8034) (xy -2.021002 1.782626)
    (xy -2.045027 1.74625) (xy -2.078024 1.704518) (xy -2.137593 1.689638) (xy -2.159 1.6891)
    (xy -2.21926 1.693982) (xy -2.243901 1.715385) (xy -2.2479 1.750043) (xy -2.236796 1.794655)
    (xy -2.19533 1.826632) (xy -2.147428 1.845772) (xy -2.037021 1.898631) (xy -1.964413 1.96459)
    (xy -1.93338 2.037714) (xy -1.947693 2.112072) (xy -1.962958 2.135801) (xy -2.034516 2.196821)
    (xy -2.123936 2.229691) (xy -2.2127 2.229707) (xy -2.259388 2.211087) (xy -2.303148 2.198043)
    (xy -2.319378 2.20203) (xy -2.349994 2.198058) (xy -2.37478 2.155942) (xy -2.386905 2.088326)
    (xy -2.387212 2.07645) (xy -2.378817 2.020501) (xy -2.35389 2.012064) (xy -2.314152 2.051241)
    (xy -2.300278 2.071256) (xy -2.233303 2.142891) (xy -2.157932 2.173925) (xy -2.086013 2.160719)
    (xy -2.036589 2.116936) (xy -2.035442 2.067784) (xy -2.080983 2.017606) (xy -2.15265 1.978481)
    (xy -2.272467 1.915965) (xy -2.342626 1.851325) (xy -2.364273 1.782444) (xy -2.338551 1.707206)
    (xy -2.316083 1.675874) (xy -2.27627 1.640676) (xy -2.219033 1.621815) (xy -2.128012 1.613967)
    (xy -2.125583 1.61388) (xy -2.041384 1.613622) (xy -1.996906 1.622095)) (layer F.SilkS) (width 0.01))
  (fp_poly (pts (xy -0.9652 1.716877) (xy -0.964883 1.872338) (xy -0.963354 1.984412) (xy -0.959746 2.060512)
    (xy -0.953195 2.10805) (xy -0.942833 2.134438) (xy -0.927795 2.147088) (xy -0.9144 2.15164)
    (xy -0.867783 2.170893) (xy -0.866547 2.18927) (xy -0.905332 2.203474) (xy -0.978776 2.210208)
    (xy -1.00965 2.210229) (xy -1.107446 2.211667) (xy -1.197974 2.218315) (xy -1.237952 2.224196)
    (xy -1.293788 2.229308) (xy -1.340167 2.212238) (xy -1.395882 2.165036) (xy -1.409402 2.151678)
    (xy -1.46579 2.087481) (xy -1.491947 2.028439) (xy -1.498588 1.949646) (xy -1.498589 1.949114)
    (xy -1.369601 1.949114) (xy -1.362001 2.015989) (xy -1.324438 2.093723) (xy -1.265245 2.144056)
    (xy -1.197342 2.160912) (xy -1.133652 2.138216) (xy -1.12268 2.12852) (xy -1.106071 2.086358)
    (xy -1.09534 2.006155) (xy -1.0922 1.9177) (xy -1.096519 1.815106) (xy -1.108261 1.739872)
    (xy -1.12268 1.70688) (xy -1.178177 1.680973) (xy -1.249327 1.680074) (xy -1.309254 1.703282)
    (xy -1.319974 1.713503) (xy -1.346649 1.77138) (xy -1.364226 1.857362) (xy -1.369601 1.949114)
    (xy -1.498589 1.949114) (xy -1.4986 1.944378) (xy -1.489746 1.853191) (xy -1.467637 1.769345)
    (xy -1.458813 1.749337) (xy -1.394083 1.67441) (xy -1.300695 1.625958) (xy -1.197589 1.612698)
    (xy -1.16998 1.616394) (xy -1.0922 1.63195) (xy -1.0922 1.513846) (xy -1.095862 1.439023)
    (xy -1.111879 1.398191) (xy -1.147802 1.374766) (xy -1.157229 1.371018) (xy -1.202854 1.344182)
    (xy -1.202036 1.319877) (xy -1.159107 1.302238) (xy -1.078397 1.2954) (xy -0.9652 1.2954)
    (xy -0.9652 1.716877)) (layer F.SilkS) (width 0.01))
  (fp_poly (pts (xy -0.5207 1.61198) (xy -0.446299 1.636591) (xy -0.396832 1.68383) (xy -0.368248 1.761635)
    (xy -0.356496 1.877946) (xy -0.3556 1.935591) (xy -0.354316 2.037713) (xy -0.348751 2.099985)
    (xy -0.336337 2.13333) (xy -0.314505 2.148669) (xy -0.3048 2.15164) (xy -0.260188 2.174486)
    (xy -0.263678 2.202155) (xy -0.294178 2.219782) (xy -0.371526 2.233546) (xy -0.433301 2.204123)
    (xy -0.442466 2.195505) (xy -0.476385 2.169813) (xy -0.510372 2.176997) (xy -0.538832 2.195505)
    (xy -0.627963 2.232108) (xy -0.717355 2.21795) (xy -0.756349 2.195659) (xy -0.807554 2.136612)
    (xy -0.814137 2.07192) (xy -0.6858 2.07192) (xy -0.667319 2.130822) (xy -0.618025 2.154818)
    (xy -0.547139 2.140268) (xy -0.531731 2.132706) (xy -0.496463 2.096024) (xy -0.483124 2.028179)
    (xy -0.4826 2.003994) (xy -0.485195 1.939501) (xy -0.498213 1.914065) (xy -0.529506 1.91601)
    (xy -0.53975 1.918992) (xy -0.624211 1.962272) (xy -0.675389 2.025259) (xy -0.6858 2.07192)
    (xy -0.814137 2.07192) (xy -0.81445 2.06885) (xy -0.780987 1.999529) (xy -0.711115 1.935804)
    (xy -0.608781 1.88483) (xy -0.579481 1.875184) (xy -0.516029 1.852122) (xy -0.489413 1.824482)
    (xy -0.486776 1.777148) (xy -0.48767 1.767245) (xy -0.500678 1.711385) (xy -0.536225 1.687439)
    (xy -0.576021 1.681277) (xy -0.632762 1.681291) (xy -0.657292 1.704839) (xy -0.664921 1.744777)
    (xy -0.685944 1.799112) (xy -0.722035 1.820437) (xy -0.756971 1.807596) (xy -0.774526 1.759433)
    (xy -0.7747 1.7526) (xy -0.751818 1.69467) (xy -0.693222 1.646137) (xy -0.613987 1.615346)
    (xy -0.529188 1.610643) (xy -0.5207 1.61198)) (layer F.SilkS) (width 0.01))
  (fp_poly (pts (xy 0.3302 1.716877) (xy 0.330517 1.872338) (xy 0.332046 1.984412) (xy 0.335654 2.060512)
    (xy 0.342205 2.10805) (xy 0.352567 2.134438) (xy 0.367605 2.147088) (xy 0.381 2.15164)
    (xy 0.427617 2.170893) (xy 0.428853 2.18927) (xy 0.390068 2.203474) (xy 0.316624 2.210208)
    (xy 0.28575 2.210229) (xy 0.187954 2.211667) (xy 0.097426 2.218315) (xy 0.057448 2.224196)
    (xy 0.001612 2.229308) (xy -0.044767 2.212238) (xy -0.100482 2.165036) (xy -0.114002 2.151678)
    (xy -0.17039 2.087481) (xy -0.196547 2.028439) (xy -0.203188 1.949646) (xy -0.2032 1.944378)
    (xy -0.201973 1.931734) (xy -0.076306 1.931734) (xy -0.064516 2.022958) (xy -0.029855 2.099985)
    (xy 0.010152 2.139561) (xy 0.072297 2.157663) (xy 0.140385 2.148098) (xy 0.17272 2.12852)
    (xy 0.189616 2.085865) (xy 0.199729 2.009696) (xy 0.20306 1.916846) (xy 0.199608 1.824147)
    (xy 0.189374 1.748429) (xy 0.172719 1.70688) (xy 0.12583 1.684007) (xy 0.071772 1.6764)
    (xy 0.008813 1.698646) (xy -0.037969 1.757002) (xy -0.0669 1.83889) (xy -0.076306 1.931734)
    (xy -0.201973 1.931734) (xy -0.194346 1.853191) (xy -0.172237 1.769345) (xy -0.163413 1.749337)
    (xy -0.098683 1.67441) (xy -0.005295 1.625958) (xy 0.097811 1.612698) (xy 0.12542 1.616394)
    (xy 0.2032 1.63195) (xy 0.2032 1.513846) (xy 0.199538 1.439023) (xy 0.183521 1.398191)
    (xy 0.147598 1.374766) (xy 0.138171 1.371018) (xy 0.092546 1.344182) (xy 0.093364 1.319877)
    (xy 0.136293 1.302238) (xy 0.217003 1.2954) (xy 0.3302 1.2954) (xy 0.3302 1.716877)) (layer F.SilkS) (width 0.01))
  (fp_poly (pts (xy 1.2954 1.700193) (xy 1.2958 1.853339) (xy 1.297611 1.963581) (xy 1.301744 2.038815)
    (xy 1.309113 2.086934) (xy 1.320631 2.115833) (xy 1.33721 2.133406) (xy 1.3462 2.139494)
    (xy 1.390028 2.175255) (xy 1.38543 2.198155) (xy 1.331955 2.208819) (xy 1.2954 2.2098)
    (xy 1.231782 2.203848) (xy 1.196393 2.188979) (xy 1.1938 2.182959) (xy 1.176684 2.175533)
    (xy 1.137348 2.195659) (xy 1.049472 2.231657) (xy 0.953404 2.219464) (xy 0.9144 2.202722)
    (xy 0.850771 2.147861) (xy 0.797977 2.061909) (xy 0.766547 1.964576) (xy 0.762134 1.9177)
    (xy 0.903514 1.9177) (xy 0.917835 2.03518) (xy 0.958161 2.115626) (xy 1.020536 2.155508)
    (xy 1.101004 2.151301) (xy 1.144669 2.132706) (xy 1.172056 2.109515) (xy 1.187113 2.068432)
    (xy 1.193139 1.996556) (xy 1.1938 1.940536) (xy 1.188247 1.817027) (xy 1.16944 1.736448)
    (xy 1.134155 1.691931) (xy 1.079168 1.676606) (xy 1.069843 1.6764) (xy 0.986521 1.697418)
    (xy 0.931778 1.760287) (xy 0.905804 1.864725) (xy 0.903514 1.9177) (xy 0.762134 1.9177)
    (xy 0.783161 1.81507) (xy 0.838846 1.724865) (xy 0.918326 1.656024) (xy 1.010739 1.617492)
    (xy 1.105223 1.618209) (xy 1.120397 1.622769) (xy 1.166595 1.636481) (xy 1.187627 1.627107)
    (xy 1.193293 1.583767) (xy 1.193411 1.541728) (xy 1.186802 1.449628) (xy 1.164309 1.396271)
    (xy 1.120673 1.370728) (xy 1.109908 1.368188) (xy 1.064502 1.350643) (xy 1.063961 1.329851)
    (xy 1.103096 1.311239) (xy 1.17475 1.300358) (xy 1.2954 1.292616) (xy 1.2954 1.700193)) (layer F.SilkS) (width 0.01))
  (fp_poly (pts (xy 1.830207 1.636181) (xy 1.906771 1.695526) (xy 1.950058 1.781533) (xy 1.9558 1.830216)
    (xy 1.9558 1.905) (xy 1.7653 1.905) (xy 1.674244 1.907645) (xy 1.606884 1.914644)
    (xy 1.575633 1.924587) (xy 1.5748 1.926609) (xy 1.582524 1.963616) (xy 1.601276 2.024136)
    (xy 1.602871 2.028745) (xy 1.651681 2.109603) (xy 1.721387 2.152781) (xy 1.799966 2.154827)
    (xy 1.875392 2.112289) (xy 1.8796 2.1082) (xy 1.930155 2.067119) (xy 1.961908 2.058473)
    (xy 1.966851 2.082287) (xy 1.95594 2.107937) (xy 1.892637 2.177107) (xy 1.801482 2.218875)
    (xy 1.700072 2.22853) (xy 1.606331 2.201539) (xy 1.52237 2.130787) (xy 1.473094 2.038759)
    (xy 1.456304 1.935789) (xy 1.4698 1.832214) (xy 1.470483 1.830671) (xy 1.582252 1.830671)
    (xy 1.596576 1.84761) (xy 1.642922 1.853548) (xy 1.700088 1.8542) (xy 1.776292 1.852)
    (xy 1.814553 1.84153) (xy 1.827668 1.816981) (xy 1.8288 1.79578) (xy 1.80857 1.722174)
    (xy 1.752443 1.681869) (xy 1.71253 1.6764) (xy 1.649285 1.694728) (xy 1.604908 1.753852)
    (xy 1.588897 1.79705) (xy 1.582252 1.830671) (xy 1.470483 1.830671) (xy 1.511385 1.738369)
    (xy 1.578859 1.66459) (xy 1.670022 1.621214) (xy 1.731327 1.614054) (xy 1.830207 1.636181)) (layer F.SilkS) (width 0.01))
  (fp_poly (pts (xy 2.883855 1.384846) (xy 2.971964 1.439136) (xy 3.06367 1.545264) (xy 3.117923 1.670449)
    (xy 3.135302 1.804151) (xy 3.116384 1.935825) (xy 3.061747 2.054932) (xy 2.971971 2.150928)
    (xy 2.931454 2.177632) (xy 2.803925 2.225965) (xy 2.675817 2.230113) (xy 2.558864 2.190063)
    (xy 2.539741 2.17805) (xy 2.445415 2.102816) (xy 2.387184 2.023475) (xy 2.357671 1.925103)
    (xy 2.3495 1.79321) (xy 2.35176 1.698358) (xy 2.493588 1.698358) (xy 2.49425 1.863844)
    (xy 2.494679 1.86913) (xy 2.521492 1.997555) (xy 2.573819 2.093709) (xy 2.645135 2.153784)
    (xy 2.728919 2.173971) (xy 2.818648 2.150462) (xy 2.88871 2.099203) (xy 2.939434 2.02)
    (xy 2.970082 1.909313) (xy 2.979663 1.782736) (xy 2.967185 1.655865) (xy 2.931655 1.544294)
    (xy 2.924865 1.530932) (xy 2.861242 1.460597) (xy 2.774568 1.425322) (xy 2.680499 1.427272)
    (xy 2.594696 1.468611) (xy 2.578628 1.483062) (xy 2.521508 1.572376) (xy 2.493588 1.698358)
    (xy 2.35176 1.698358) (xy 2.351938 1.690928) (xy 2.362234 1.621609) (xy 2.384855 1.567529)
    (xy 2.418913 1.51794) (xy 2.517833 1.424552) (xy 2.63574 1.37018) (xy 2.761469 1.356415)
    (xy 2.883855 1.384846)) (layer F.SilkS) (width 0.01))
  (fp_poly (pts (xy 4.52886 1.629391) (xy 4.608452 1.6787) (xy 4.660001 1.756271) (xy 4.6736 1.832225)
    (xy 4.6736 1.905) (xy 4.28625 1.905) (xy 4.302201 1.98755) (xy 4.337346 2.072977)
    (xy 4.397096 2.131148) (xy 4.469368 2.157008) (xy 4.542079 2.145502) (xy 4.590593 2.1082)
    (xy 4.638032 2.064644) (xy 4.666484 2.064959) (xy 4.6736 2.095873) (xy 4.651856 2.136056)
    (xy 4.597757 2.17928) (xy 4.528003 2.215381) (xy 4.459291 2.234195) (xy 4.445 2.23501)
    (xy 4.379714 2.221765) (xy 4.307133 2.189593) (xy 4.302268 2.186696) (xy 4.224181 2.112256)
    (xy 4.180216 2.013855) (xy 4.169717 1.904421) (xy 4.192029 1.79688) (xy 4.193057 1.79513)
    (xy 4.296847 1.79513) (xy 4.300633 1.832558) (xy 4.347314 1.850427) (xy 4.4196 1.8542)
    (xy 4.495171 1.851934) (xy 4.532878 1.841192) (xy 4.545592 1.816052) (xy 4.5466 1.79578)
    (xy 4.526953 1.725652) (xy 4.478111 1.684759) (xy 4.415218 1.677544) (xy 4.35342 1.70845)
    (xy 4.33214 1.732851) (xy 4.296847 1.79513) (xy 4.193057 1.79513) (xy 4.246497 1.704158)
    (xy 4.329954 1.640356) (xy 4.432327 1.614543) (xy 4.52886 1.629391)) (layer F.SilkS) (width 0.01))
  (fp_poly (pts (xy 5.2832 1.715486) (xy 5.283515 1.871238) (xy 5.285036 1.98359) (xy 5.288624 2.059943)
    (xy 5.295141 2.107695) (xy 5.305448 2.134245) (xy 5.320409 2.146994) (xy 5.334 2.15164)
    (xy 5.380137 2.171106) (xy 5.380835 2.190048) (xy 5.34135 2.204672) (xy 5.266939 2.211184)
    (xy 5.25145 2.211214) (xy 5.153846 2.213431) (xy 5.061107 2.220416) (xy 5.028908 2.224681)
    (xy 4.945897 2.22507) (xy 4.875938 2.189158) (xy 4.873597 2.187332) (xy 4.796068 2.096694)
    (xy 4.757339 1.985792) (xy 4.757785 1.9177) (xy 4.8895 1.9177) (xy 4.89769 2.020474)
    (xy 4.924649 2.088674) (xy 4.937886 2.105533) (xy 5.002739 2.149261) (xy 5.073379 2.155678)
    (xy 5.12572 2.12852) (xy 5.142616 2.085865) (xy 5.152729 2.009696) (xy 5.15606 1.916846)
    (xy 5.152608 1.824147) (xy 5.142374 1.748429) (xy 5.125719 1.70688) (xy 5.065402 1.678469)
    (xy 4.994481 1.689377) (xy 4.937886 1.729866) (xy 4.904135 1.789906) (xy 4.890304 1.880054)
    (xy 4.8895 1.9177) (xy 4.757785 1.9177) (xy 4.758111 1.867963) (xy 4.799082 1.756543)
    (xy 4.847705 1.693771) (xy 4.908553 1.64338) (xy 4.971953 1.622155) (xy 5.040088 1.619254)
    (xy 5.1562 1.621009) (xy 5.1562 1.498071) (xy 5.153306 1.423002) (xy 5.140589 1.384708)
    (xy 5.111992 1.369302) (xy 5.09905 1.367016) (xy 5.049506 1.352366) (xy 5.04454 1.33294)
    (xy 5.078967 1.314179) (xy 5.147601 1.301526) (xy 5.16255 1.300358) (xy 5.2832 1.292616)
    (xy 5.2832 1.715486)) (layer F.SilkS) (width 0.01))
  (fp_poly (pts (xy 5.823668 1.634737) (xy 5.914502 1.689475) (xy 5.976917 1.77136) (xy 6.007403 1.870931)
    (xy 6.002452 1.978725) (xy 5.958555 2.085282) (xy 5.906036 2.150843) (xy 5.810225 2.217988)
    (xy 5.707498 2.23481) (xy 5.598013 2.201293) (xy 5.573275 2.187309) (xy 5.493488 2.113519)
    (xy 5.449512 2.019447) (xy 5.438826 1.915784) (xy 5.440266 1.908425) (xy 5.568975 1.908425)
    (xy 5.580374 2.021528) (xy 5.622268 2.11404) (xy 5.640216 2.135016) (xy 5.704357 2.178354)
    (xy 5.765888 2.172249) (xy 5.8166 2.1336) (xy 5.848383 2.087252) (xy 5.863916 2.020146)
    (xy 5.8674 1.936051) (xy 5.856906 1.809637) (xy 5.824355 1.727184) (xy 5.768138 1.68615)
    (xy 5.706209 1.681322) (xy 5.651565 1.693991) (xy 5.617366 1.728234) (xy 5.590557 1.7919)
    (xy 5.568975 1.908425) (xy 5.440266 1.908425) (xy 5.458909 1.813219) (xy 5.507237 1.722442)
    (xy 5.581289 1.654142) (xy 5.678543 1.619009) (xy 5.707923 1.616609) (xy 5.823668 1.634737)) (layer F.SilkS) (width 0.01))
  (fp_poly (pts (xy -4.615351 1.651407) (xy -4.581735 1.681114) (xy -4.561338 1.713791) (xy -4.550877 1.762282)
    (xy -4.547067 1.839432) (xy -4.5466 1.92034) (xy -4.544534 2.031543) (xy -4.537331 2.101137)
    (xy -4.523486 2.138183) (xy -4.5085 2.149814) (xy -4.471144 2.172739) (xy -4.480059 2.192152)
    (xy -4.530722 2.205383) (xy -4.6101 2.2098) (xy -4.686605 2.205624) (xy -4.737347 2.194853)
    (xy -4.7498 2.1844) (xy -4.72916 2.162026) (xy -4.710712 2.159) (xy -4.691855 2.151421)
    (xy -4.681003 2.122596) (xy -4.676851 2.06339) (xy -4.678094 1.964671) (xy -4.678962 1.93675)
    (xy -4.6863 1.7145) (xy -4.757686 1.706314) (xy -4.824065 1.707169) (xy -4.867191 1.73285)
    (xy -4.891471 1.790696) (xy -4.90131 1.888044) (xy -4.9022 1.947007) (xy -4.899547 2.0511)
    (xy -4.890424 2.113887) (xy -4.87309 2.144641) (xy -4.8641 2.149814) (xy -4.826744 2.172739)
    (xy -4.835659 2.192152) (xy -4.886322 2.205383) (xy -4.9657 2.2098) (xy -5.042205 2.205624)
    (xy -5.092947 2.194853) (xy -5.1054 2.1844) (xy -5.084828 2.161865) (xy -5.0673 2.159)
    (xy -5.048618 2.150028) (xy -5.037022 2.117303) (xy -5.031044 2.052106) (xy -5.029212 1.94572)
    (xy -5.0292 1.933117) (xy -5.031087 1.819024) (xy -5.037692 1.746684) (xy -5.050431 1.707155)
    (xy -5.0673 1.692614) (xy -5.104084 1.667815) (xy -5.096195 1.644453) (xy -5.049534 1.628753)
    (xy -5.0038 1.6256) (xy -4.935219 1.630974) (xy -4.905714 1.650097) (xy -4.9022 1.667636)
    (xy -4.898139 1.695525) (xy -4.877312 1.686616) (xy -4.85775 1.669615) (xy -4.771349 1.618502)
    (xy -4.683689 1.616402) (xy -4.615351 1.651407)) (layer F.SilkS) (width 0.01))
  (fp_poly (pts (xy -4.191 1.8923) (xy -4.189832 2.014089) (xy -4.185547 2.093317) (xy -4.176973 2.138183)
    (xy -4.162939 2.156889) (xy -4.1529 2.159) (xy -4.119099 2.172715) (xy -4.1148 2.1844)
    (xy -4.137766 2.198309) (xy -4.197008 2.207535) (xy -4.2545 2.2098) (xy -4.331005 2.205624)
    (xy -4.381747 2.194853) (xy -4.3942 2.1844) (xy -4.373628 2.161865) (xy -4.3561 2.159)
    (xy -4.337453 2.150052) (xy -4.325864 2.117405) (xy -4.319872 2.052356) (xy -4.318015 1.946201)
    (xy -4.318 1.932111) (xy -4.319065 1.822935) (xy -4.323713 1.754118) (xy -4.33412 1.71524)
    (xy -4.352467 1.695878) (xy -4.3688 1.6891) (xy -4.414121 1.666277) (xy -4.413145 1.645164)
    (xy -4.370303 1.630191) (xy -4.3053 1.6256) (xy -4.191 1.6256) (xy -4.191 1.8923)) (layer F.SilkS) (width 0.01))
  (fp_poly (pts (xy -3.516633 1.632428) (xy -3.481781 1.651058) (xy -3.492754 1.678708) (xy -3.51493 1.694187)
    (xy -3.539164 1.725052) (xy -3.576449 1.792054) (xy -3.62098 1.884161) (xy -3.65222 1.954996)
    (xy -3.707803 2.08007) (xy -3.750169 2.160813) (xy -3.782039 2.201126) (xy -3.806135 2.204915)
    (xy -3.817515 2.19209) (xy -3.831902 2.16108) (xy -3.860638 2.094368) (xy -3.898885 2.003291)
    (xy -3.923795 1.9431) (xy -3.967838 1.842644) (xy -4.009036 1.760108) (xy -4.041408 1.706958)
    (xy -4.053653 1.694187) (xy -4.088111 1.663672) (xy -4.074883 1.64085) (xy -4.016774 1.62783)
    (xy -3.9624 1.6256) (xy -3.889954 1.630168) (xy -3.843971 1.64185) (xy -3.8354 1.651)
    (xy -3.855078 1.675216) (xy -3.863554 1.6764) (xy -3.880408 1.694887) (xy -3.871602 1.75163)
    (xy -3.836686 1.848552) (xy -3.80644 1.919115) (xy -3.75057 2.0447) (xy -3.692944 1.9177)
    (xy -3.650131 1.807277) (xy -3.635077 1.728059) (xy -3.648168 1.684127) (xy -3.6703 1.6764)
    (xy -3.704102 1.662684) (xy -3.7084 1.651) (xy -3.685698 1.635852) (xy -3.628259 1.626765)
    (xy -3.5941 1.6256) (xy -3.516633 1.632428)) (layer F.SilkS) (width 0.01))
  (fp_poly (pts (xy -2.482371 1.622273) (xy -2.437095 1.658995) (xy -2.417283 1.710932) (xy -2.418373 1.723641)
    (xy -2.446547 1.763098) (xy -2.496145 1.773041) (xy -2.545649 1.751095) (xy -2.556578 1.738893)
    (xy -2.588865 1.709273) (xy -2.623526 1.722834) (xy -2.628107 1.726541) (xy -2.650348 1.762062)
    (xy -2.662768 1.828773) (xy -2.66697 1.935834) (xy -2.667 1.948588) (xy -2.665532 2.046896)
    (xy -2.65924 2.105751) (xy -2.645296 2.136461) (xy -2.620871 2.150331) (xy -2.6162 2.15164)
    (xy -2.569769 2.17054) (xy -2.569349 2.188273) (xy -2.610175 2.202114) (xy -2.687481 2.209333)
    (xy -2.7178 2.2098) (xy -2.798977 2.205944) (xy -2.854013 2.19587) (xy -2.8702 2.1844)
    (xy -2.849628 2.161865) (xy -2.8321 2.159) (xy -2.813541 2.150109) (xy -2.801968 2.117657)
    (xy -2.795942 2.052973) (xy -2.794023 1.947386) (xy -2.794 1.929602) (xy -2.795836 1.814596)
    (xy -2.802268 1.741388) (xy -2.814686 1.701079) (xy -2.8321 1.685585) (xy -2.868626 1.66189)
    (xy -2.859666 1.640956) (xy -2.810487 1.627759) (xy -2.7686 1.6256) (xy -2.700019 1.630974)
    (xy -2.670514 1.650097) (xy -2.667 1.667636) (xy -2.662439 1.695437) (xy -2.640072 1.686013)
    (xy -2.62255 1.671497) (xy -2.566979 1.633347) (xy -2.534386 1.61784) (xy -2.482371 1.622273)) (layer F.SilkS) (width 0.01))
  (fp_poly (pts (xy -1.651 1.8923) (xy -1.649832 2.014089) (xy -1.645547 2.093317) (xy -1.636973 2.138183)
    (xy -1.622939 2.156889) (xy -1.6129 2.159) (xy -1.579099 2.172715) (xy -1.5748 2.1844)
    (xy -1.597766 2.198309) (xy -1.657008 2.207535) (xy -1.7145 2.2098) (xy -1.791005 2.205624)
    (xy -1.841747 2.194853) (xy -1.8542 2.1844) (xy -1.833628 2.161865) (xy -1.8161 2.159)
    (xy -1.797453 2.150052) (xy -1.785864 2.117405) (xy -1.779872 2.052356) (xy -1.778015 1.946201)
    (xy -1.778 1.932111) (xy -1.779065 1.822935) (xy -1.783713 1.754118) (xy -1.79412 1.71524)
    (xy -1.812467 1.695878) (xy -1.8288 1.6891) (xy -1.874121 1.666277) (xy -1.873145 1.645164)
    (xy -1.830303 1.630191) (xy -1.7653 1.6256) (xy -1.651 1.6256) (xy -1.651 1.8923)) (layer F.SilkS) (width 0.01))
  (fp_poly (pts (xy 4.0132 1.876501) (xy 4.014096 1.992696) (xy 4.018216 2.069021) (xy 4.027705 2.116398)
    (xy 4.044711 2.145746) (xy 4.07035 2.167269) (xy 4.098232 2.188914) (xy 4.098429 2.200998)
    (xy 4.063649 2.206476) (xy 3.986602 2.208306) (xy 3.96875 2.208467) (xy 3.879359 2.204757)
    (xy 3.824386 2.193561) (xy 3.808667 2.177424) (xy 3.837034 2.158891) (xy 3.8608 2.15164)
    (xy 3.886939 2.139356) (xy 3.902247 2.111987) (xy 3.909524 2.058264) (xy 3.91157 1.96692)
    (xy 3.9116 1.947292) (xy 3.904416 1.817007) (xy 3.881693 1.731399) (xy 3.841669 1.68625)
    (xy 3.798595 1.6764) (xy 3.769346 1.683805) (xy 3.740018 1.710756) (xy 3.706063 1.764353)
    (xy 3.662931 1.851697) (xy 3.610097 1.970583) (xy 3.555931 2.089706) (xy 3.51459 2.164605)
    (xy 3.482599 2.199169) (xy 3.456485 2.197289) (xy 3.434753 2.166893) (xy 3.41513 2.122974)
    (xy 3.382863 2.045829) (xy 3.343804 1.949542) (xy 3.329351 1.913268) (xy 3.288401 1.81828)
    (xy 3.24963 1.742657) (xy 3.219354 1.698218) (xy 3.211018 1.691815) (xy 3.174732 1.668093)
    (xy 3.183361 1.646333) (xy 3.231073 1.630781) (xy 3.302 1.6256) (xy 3.377981 1.63125)
    (xy 3.422978 1.645546) (xy 3.430186 1.664502) (xy 3.398731 1.682256) (xy 3.387364 1.705187)
    (xy 3.399017 1.762509) (xy 3.428091 1.843122) (xy 3.461865 1.924838) (xy 3.490395 1.987381)
    (xy 3.505788 2.014658) (xy 3.523333 2.003743) (xy 3.552404 1.95544) (xy 3.586899 1.88)
    (xy 3.588958 1.874958) (xy 3.622594 1.787184) (xy 3.636415 1.733614) (xy 3.632215 1.702475)
    (xy 3.61773 1.686299) (xy 3.589325 1.659124) (xy 3.591372 1.641306) (xy 3.62929 1.631014)
    (xy 3.7085 1.626415) (xy 3.7973 1.6256) (xy 4.0132 1.6256) (xy 4.0132 1.876501)) (layer F.SilkS) (width 0.01))
  (fp_poly (pts (xy -4.258669 1.325669) (xy -4.214872 1.351238) (xy -4.20039 1.397426) (xy -4.215254 1.443429)
    (xy -4.258454 1.468302) (xy -4.30923 1.463572) (xy -4.329943 1.449025) (xy -4.339484 1.396056)
    (xy -4.315846 1.347989) (xy -4.2708 1.325197) (xy -4.258669 1.325669)) (layer F.SilkS) (width 0.01))
  (fp_poly (pts (xy -1.675566 1.347295) (xy -1.6637 1.397) (xy -1.677661 1.449324) (xy -1.720964 1.468631)
    (xy -1.774543 1.459405) (xy -1.793532 1.436881) (xy -1.799185 1.373998) (xy -1.768756 1.332986)
    (xy -1.720964 1.325368) (xy -1.675566 1.347295)) (layer F.SilkS) (width 0.01))
  (fp_poly (pts (xy 3.997601 1.342197) (xy 4.025536 1.39075) (xy 4.02362 1.43188) (xy 3.988447 1.464558)
    (xy 3.9497 1.4732) (xy 3.897598 1.457093) (xy 3.875779 1.43188) (xy 3.877706 1.3784)
    (xy 3.911618 1.334017) (xy 3.9497 1.3208) (xy 3.997601 1.342197)) (layer F.SilkS) (width 0.01))
  (fp_poly (pts (xy 3.884717 -2.298266) (xy 3.975314 -2.264581) (xy 4.064331 -2.218925) (xy 4.134474 -2.16988)
    (xy 4.164661 -2.135355) (xy 4.209034 -2.087434) (xy 4.241773 -2.070109) (xy 4.282951 -2.042951)
    (xy 4.2926 -2.020074) (xy 4.270479 -1.990379) (xy 4.215938 -1.960377) (xy 4.146706 -1.937853)
    (xy 4.088431 -1.9304) (xy 4.052187 -1.91074) (xy 4.047772 -1.885963) (xy 4.029391 -1.846083)
    (xy 3.99415 -1.833396) (xy 3.944253 -1.814519) (xy 3.935864 -1.787155) (xy 3.964513 -1.76442)
    (xy 4.01955 -1.758854) (xy 4.080501 -1.755932) (xy 4.101825 -1.732114) (xy 4.1021 -1.7272)
    (xy 4.089401 -1.70307) (xy 4.044322 -1.695131) (xy 3.99415 -1.697165) (xy 3.8862 -1.705229)
    (xy 3.8862 -1.601915) (xy 3.888597 -1.536163) (xy 3.9049 -1.506669) (xy 3.948771 -1.49889)
    (xy 3.983275 -1.4986) (xy 4.068473 -1.507286) (xy 4.166669 -1.529087) (xy 4.200055 -1.539388)
    (xy 4.270223 -1.566661) (xy 4.290611 -1.582672) (xy 4.46093 -1.582672) (xy 4.466833 -1.577199)
    (xy 4.516351 -1.594481) (xy 4.581917 -1.623551) (xy 4.65798 -1.657759) (xy 4.72229 -1.684501)
    (xy 4.729817 -1.6873) (xy 4.915559 -1.6873) (xy 4.94494 -1.653999) (xy 4.949463 -1.650155)
    (xy 5.010426 -1.608513) (xy 5.046496 -1.604178) (xy 5.0546 -1.624707) (xy 5.033565 -1.65555)
    (xy 4.98524 -1.685146) (xy 4.931796 -1.700659) (xy 4.922919 -1.700955) (xy 4.915559 -1.6873)
    (xy 4.729817 -1.6873) (xy 4.7371 -1.690008) (xy 4.765712 -1.707764) (xy 4.758187 -1.718895)
    (xy 4.721759 -1.713715) (xy 4.655742 -1.689215) (xy 4.580387 -1.65366) (xy 4.498746 -1.608844)
    (xy 4.46093 -1.582672) (xy 4.290611 -1.582672) (xy 4.298575 -1.588926) (xy 4.2928 -1.612571)
    (xy 4.290939 -1.614901) (xy 4.267319 -1.675471) (xy 4.265982 -1.713725) (xy 4.320462 -1.713725)
    (xy 4.333194 -1.656129) (xy 4.360961 -1.626646) (xy 4.368727 -1.6256) (xy 4.403637 -1.636387)
    (xy 4.469335 -1.66467) (xy 4.551625 -1.704338) (xy 4.55199 -1.704522) (xy 4.692547 -1.775475)
    (xy 4.819951 -1.775475) (xy 4.843152 -1.764382) (xy 4.912682 -1.752942) (xy 4.913435 -1.752844)
    (xy 5.004376 -1.733157) (xy 5.064048 -1.697394) (xy 5.090719 -1.667169) (xy 5.127401 -1.622862)
    (xy 5.150751 -1.61636) (xy 5.174734 -1.641984) (xy 5.199998 -1.7017) (xy 5.207 -1.752375)
    (xy 5.187872 -1.828366) (xy 5.135677 -1.871321) (xy 5.058192 -1.878405) (xy 4.963195 -1.846784)
    (xy 4.956919 -1.843493) (xy 4.889275 -1.810013) (xy 4.8387 -1.788296) (xy 4.819951 -1.775475)
    (xy 4.692547 -1.775475) (xy 4.708332 -1.783443) (xy 4.646516 -1.830969) (xy 4.570192 -1.872823)
    (xy 4.483234 -1.896763) (xy 4.405696 -1.89871) (xy 4.371003 -1.886994) (xy 4.339513 -1.845977)
    (xy 4.322617 -1.782614) (xy 4.320462 -1.713725) (xy 4.265982 -1.713725) (xy 4.264375 -1.759671)
    (xy 4.281111 -1.845184) (xy 4.303345 -1.892882) (xy 4.362485 -1.940248) (xy 4.448777 -1.956919)
    (xy 4.548043 -1.941744) (xy 4.606653 -1.917544) (xy 4.668526 -1.887425) (xy 4.693531 -1.882464)
    (xy 4.688328 -1.901628) (xy 4.686159 -1.905228) (xy 4.683589 -1.922984) (xy 4.73893 -1.922984)
    (xy 4.741567 -1.915217) (xy 4.77206 -1.882516) (xy 4.807708 -1.888) (xy 4.825949 -1.92761)
    (xy 4.826 -1.9304) (xy 4.811878 -1.971609) (xy 4.792133 -1.9812) (xy 4.744718 -1.965893)
    (xy 4.73893 -1.922984) (xy 4.683589 -1.922984) (xy 4.679866 -1.948698) (xy 4.685627 -1.979081)
    (xy 4.72147 -2.031999) (xy 4.773122 -2.048107) (xy 4.825893 -2.031219) (xy 4.865089 -1.985148)
    (xy 4.8768 -1.929457) (xy 4.8768 -1.854102) (xy 4.971673 -1.904951) (xy 5.048174 -1.942147)
    (xy 5.100608 -1.951994) (xy 5.147816 -1.93434) (xy 5.190874 -1.903157) (xy 5.243562 -1.832159)
    (xy 5.259322 -1.741078) (xy 5.23751 -1.645385) (xy 5.203929 -1.589366) (xy 5.167038 -1.514577)
    (xy 5.165549 -1.42296) (xy 5.199606 -1.305614) (xy 5.208843 -1.2827) (xy 5.229531 -1.219652)
    (xy 5.235162 -1.174014) (xy 5.2351 -1.17362) (xy 5.246027 -1.126165) (xy 5.285062 -1.049989)
    (xy 5.346687 -0.954454) (xy 5.425386 -0.84892) (xy 5.429545 -0.843705) (xy 5.475555 -0.777125)
    (xy 5.501108 -0.721857) (xy 5.502724 -0.698787) (xy 5.507562 -0.656083) (xy 5.536338 -0.584623)
    (xy 5.58235 -0.496169) (xy 5.638895 -0.402485) (xy 5.69927 -0.315333) (xy 5.756774 -0.246477)
    (xy 5.76537 -0.237837) (xy 5.817931 -0.181649) (xy 5.83656 -0.143336) (xy 5.827356 -0.109492)
    (xy 5.825299 -0.106091) (xy 5.816795 -0.078399) (xy 5.822154 -0.036558) (xy 5.844012 0.027495)
    (xy 5.885008 0.121824) (xy 5.933678 0.225173) (xy 5.985937 0.335787) (xy 6.029 0.430024)
    (xy 6.058616 0.498361) (xy 6.070537 0.531274) (xy 6.0706 0.532049) (xy 6.048852 0.561731)
    (xy 5.996263 0.578732) (xy 5.931816 0.580287) (xy 5.87449 0.563633) (xy 5.870412 0.561199)
    (xy 5.850974 0.539884) (xy 5.850882 0.502764) (xy 5.870386 0.434918) (xy 5.872624 0.428238)
    (xy 5.890095 0.371339) (xy 5.895362 0.325734) (xy 5.88598 0.276358) (xy 5.859503 0.20815)
    (xy 5.824108 0.129324) (xy 5.78045 0.041572) (xy 5.744025 -0.016608) (xy 5.71994 -0.037387)
    (xy 5.716403 -0.035776) (xy 5.698673 -0.001213) (xy 5.67287 0.067689) (xy 5.644449 0.156303)
    (xy 5.643292 0.160196) (xy 5.617036 0.254274) (xy 5.605954 0.318732) (xy 5.609284 0.372187)
    (xy 5.626263 0.433257) (xy 5.631472 0.448735) (xy 5.652639 0.53364) (xy 5.642141 0.583491)
    (xy 5.596204 0.605693) (xy 5.5499 0.608822) (xy 5.477759 0.598675) (xy 5.447319 0.56467)
    (xy 5.455768 0.501459) (xy 5.472083 0.460783) (xy 5.518022 0.358909) (xy 5.42126 0.185881)
    (xy 5.324497 0.012854) (xy 5.280245 0.188202) (xy 5.257767 0.28354) (xy 5.24912 0.347829)
    (xy 5.254062 0.398833) (xy 5.272353 0.454316) (xy 5.276501 0.464791) (xy 5.30019 0.529622)
    (xy 5.302543 0.56569) (xy 5.28267 0.59074) (xy 5.269687 0.600635) (xy 5.204138 0.621081)
    (xy 5.131243 0.606928) (xy 5.097687 0.585063) (xy 5.094612 0.552461) (xy 5.112113 0.494489)
    (xy 5.120545 0.475498) (xy 5.141582 0.427444) (xy 5.149158 0.387447) (xy 5.141595 0.340588)
    (xy 5.117218 0.271949) (xy 5.090157 0.205163) (xy 5.051616 0.119557) (xy 5.016504 0.056092)
    (xy 4.991396 0.026361) (xy 4.988257 0.025482) (xy 4.968677 0.048434) (xy 4.953337 0.10807)
    (xy 4.943331 0.190371) (xy 4.939752 0.281317) (xy 4.943692 0.36689) (xy 4.956244 0.433071)
    (xy 4.956438 0.433652) (xy 4.981784 0.499552) (xy 5.004786 0.545055) (xy 5.00688 0.547974)
    (xy 5.013887 0.584469) (xy 4.98381 0.613461) (xy 4.930253 0.63081) (xy 4.866821 0.632377)
    (xy 4.807119 0.614024) (xy 4.801244 0.610536) (xy 4.781892 0.590045) (xy 4.783485 0.556543)
    (xy 4.807859 0.496557) (xy 4.820294 0.470545) (xy 4.853833 0.38799) (xy 4.874083 0.312055)
    (xy 4.8768 0.285428) (xy 4.8768 0.216615) (xy 4.81965 0.298368) (xy 4.775853 0.352256)
    (xy 4.74235 0.378679) (xy 4.727042 0.373521) (xy 4.733436 0.343287) (xy 4.725691 0.303741)
    (xy 4.681439 0.270951) (xy 4.614896 0.254491) (xy 4.600884 0.254) (xy 4.531772 0.276474)
    (xy 4.486294 0.338237) (xy 4.470788 0.427264) (xy 4.474303 0.484045) (xy 4.485428 0.494614)
    (xy 4.49527 0.4826) (xy 4.518755 0.457549) (xy 4.54675 0.472222) (xy 4.557517 0.482643)
    (xy 4.577888 0.534187) (xy 4.558959 0.596453) (xy 4.506458 0.656636) (xy 4.468041 0.682717)
    (xy 4.416681 0.704762) (xy 4.3699 0.700103) (xy 4.322359 0.679081) (xy 4.266653 0.655884)
    (xy 4.243778 0.660645) (xy 4.2418 0.67111) (xy 4.220179 0.719564) (xy 4.168337 0.763084)
    (xy 4.105805 0.786467) (xy 4.092392 0.7874) (xy 4.018546 0.807866) (xy 3.944517 0.859486)
    (xy 3.886163 0.927592) (xy 3.859339 0.997515) (xy 3.859015 1.0033) (xy 3.850655 1.07727)
    (xy 3.836341 1.1303) (xy 3.818299 1.164068) (xy 3.803914 1.1521) (xy 3.798422 1.139553)
    (xy 3.785411 1.086236) (xy 3.77694 1.013201) (xy 3.776646 1.008071) (xy 3.7604 0.933207)
    (xy 3.713378 0.883806) (xy 3.70205 0.876731) (xy 3.653545 0.841219) (xy 3.632243 0.81224)
    (xy 3.6322 0.811363) (xy 3.609939 0.795235) (xy 3.555517 0.787513) (xy 3.547236 0.7874)
    (xy 3.470796 0.77112) (xy 3.409254 0.730153) (xy 3.379043 0.676307) (xy 3.3782 0.665931)
    (xy 3.359897 0.654847) (xy 3.30835 0.676707) (xy 3.241228 0.701989) (xy 3.175387 0.691395)
    (xy 3.168337 0.688735) (xy 3.111793 0.652052) (xy 3.07258 0.600022) (xy 3.052878 0.544356)
    (xy 3.054867 0.496768) (xy 3.080726 0.468968) (xy 3.12783 0.471052) (xy 3.163859 0.478028)
    (xy 3.173999 0.458617) (xy 3.165904 0.405374) (xy 3.145987 0.337064) (xy 3.12121 0.288501)
    (xy 3.120939 0.28817) (xy 3.07137 0.261272) (xy 3.002581 0.255485) (xy 2.941975 0.271756)
    (xy 2.929009 0.28155) (xy 2.88411 0.299976) (xy 2.841379 0.3006) (xy 2.806991 0.290609)
    (xy 2.787709 0.264496) (xy 2.777925 0.209455) (xy 2.773681 0.146012) (xy 2.772064 0.058471)
    (xy 2.781917 0.003276) (xy 2.808122 -0.037597) (xy 2.829108 -0.058504) (xy 2.869914 -0.099165)
    (xy 2.875344 -0.122357) (xy 2.847714 -0.144669) (xy 2.84167 -0.14846) (xy 2.808487 -0.181954)
    (xy 2.797313 -0.236604) (xy 2.798701 -0.2794) (xy 3.12821 -0.2794) (xy 3.132202 -0.243342)
    (xy 3.141021 -0.24765) (xy 3.144376 -0.299653) (xy 3.141021 -0.31115) (xy 3.131751 -0.314341)
    (xy 3.12821 -0.2794) (xy 2.798701 -0.2794) (xy 2.798943 -0.286844) (xy 2.80646 -0.354076)
    (xy 2.824509 -0.384818) (xy 2.865986 -0.393327) (xy 2.8956 -0.3937) (xy 3.144578 -0.3937)
    (xy 4.4704 -0.408046) (xy 4.4704 -0.150755) (xy 3.80775 -0.157928) (xy 3.145101 -0.1651)
    (xy 3.161193 -0.06458) (xy 3.211303 0.110725) (xy 3.298893 0.270069) (xy 3.416481 0.404692)
    (xy 3.556583 0.505837) (xy 3.6957 0.560995) (xy 3.813481 0.570718) (xy 3.945696 0.550843)
    (xy 4.064 0.507108) (xy 4.132361 0.461768) (xy 4.210672 0.395293) (xy 4.2545 0.351402)
    (xy 4.301579 0.299206) (xy 4.324405 0.271398) (xy 4.319269 0.27305) (xy 4.287213 0.285577)
    (xy 4.221281 0.29473) (xy 4.117033 0.300789) (xy 3.970031 0.304037) (xy 3.818535 0.3048)
    (xy 3.354631 0.3048) (xy 3.294223 0.2159) (xy 4.3434 0.2159) (xy 4.3561 0.2286)
    (xy 4.3688 0.2159) (xy 4.3561 0.2032) (xy 4.3434 0.2159) (xy 3.294223 0.2159)
    (xy 3.290215 0.210003) (xy 3.262879 0.1651) (xy 4.3688 0.1651) (xy 4.3815 0.1778)
    (xy 4.3942 0.1651) (xy 4.3815 0.1524) (xy 4.3688 0.1651) (xy 3.262879 0.1651)
    (xy 3.250974 0.145546) (xy 3.236846 0.1143) (xy 4.3942 0.1143) (xy 4.4069 0.127)
    (xy 4.4196 0.1143) (xy 4.4069 0.1016) (xy 4.3942 0.1143) (xy 3.236846 0.1143)
    (xy 3.228152 0.095074) (xy 3.2258 0.083003) (xy 3.236613 0.07242) (xy 3.272293 0.06427)
    (xy 3.337696 0.058297) (xy 3.437678 0.054243) (xy 3.577097 0.05185) (xy 3.760811 0.050861)
    (xy 3.833599 0.0508) (xy 4.441398 0.0508) (xy 4.471483 -0.094118) (xy 4.487684 -0.246371)
    (xy 4.481225 -0.417385) (xy 4.454102 -0.576789) (xy 4.439492 -0.635) (xy 3.832646 -0.635)
    (xy 3.663142 -0.635548) (xy 3.511885 -0.637087) (xy 3.38583 -0.639458) (xy 3.291934 -0.642506)
    (xy 3.237156 -0.646073) (xy 3.2258 -0.648712) (xy 3.236359 -0.677717) (xy 3.24013 -0.6858)
    (xy 4.3942 -0.6858) (xy 4.403493 -0.664893) (xy 4.411133 -0.668867) (xy 4.414173 -0.699011)
    (xy 4.411133 -0.702734) (xy 4.396033 -0.699247) (xy 4.3942 -0.6858) (xy 3.24013 -0.6858)
    (xy 3.26297 -0.734751) (xy 3.277116 -0.763012) (xy 3.315473 -0.8382) (xy 4.328912 -0.8382)
    (xy 4.329085 -0.819533) (xy 4.3434 -0.7874) (xy 4.36963 -0.747483) (xy 4.383287 -0.7366)
    (xy 4.383114 -0.755268) (xy 4.3688 -0.7874) (xy 4.342569 -0.827318) (xy 4.328912 -0.8382)
    (xy 3.315473 -0.8382) (xy 3.328432 -0.8636) (xy 4.327504 -0.8636) (xy 4.252902 -0.943013)
    (xy 4.146804 -1.028976) (xy 4.015376 -1.096473) (xy 3.879402 -1.136159) (xy 3.808637 -1.142752)
    (xy 3.683998 -1.123493) (xy 3.551513 -1.07166) (xy 3.43158 -0.996904) (xy 3.362036 -0.931476)
    (xy 3.294677 -0.834078) (xy 3.231398 -0.71245) (xy 3.182047 -0.587944) (xy 3.157142 -0.487236)
    (xy 3.144578 -0.3937) (xy 2.8956 -0.3937) (xy 2.957301 -0.399874) (xy 2.979865 -0.425911)
    (xy 2.975626 -0.47625) (xy 2.950538 -0.488545) (xy 2.893177 -0.495011) (xy 2.876566 -0.4953)
    (xy 2.7813 -0.4953) (xy 2.7813 -0.647358) (xy 2.783194 -0.733286) (xy 2.792741 -0.783415)
    (xy 2.815731 -0.812712) (xy 2.853547 -0.834043) (xy 2.905833 -0.853144) (xy 2.95681 -0.851929)
    (xy 3.028629 -0.829362) (xy 3.03924 -0.825345) (xy 3.120457 -0.799623) (xy 3.162438 -0.798023)
    (xy 3.162779 -0.819285) (xy 3.119078 -0.862151) (xy 3.11524 -0.865196) (xy 3.024735 -0.942269)
    (xy 2.978546 -0.996358) (xy 2.9718 -1.01678) (xy 2.985483 -1.056166) (xy 3.019522 -1.118448)
    (xy 3.063402 -1.187297) (xy 3.106606 -1.246383) (xy 3.138619 -1.279376) (xy 3.142053 -1.281163)
    (xy 3.183167 -1.274882) (xy 3.213241 -1.25353) (xy 3.238543 -1.213324) (xy 3.223566 -1.178409)
    (xy 3.208415 -1.149857) (xy 3.232742 -1.143) (xy 3.266237 -1.162982) (xy 3.313452 -1.21475)
    (xy 3.353019 -1.270343) (xy 3.403949 -1.343196) (xy 3.450477 -1.398875) (xy 3.475082 -1.420265)
    (xy 3.484119 -1.441993) (xy 3.463161 -1.4605) (xy 3.7592 -1.4605) (xy 3.7719 -1.4478)
    (xy 3.782329 -1.458229) (xy 4.144843 -1.458229) (xy 4.153735 -1.436778) (xy 4.18662 -1.388285)
    (xy 4.234437 -1.324283) (xy 4.288124 -1.256307) (xy 4.338622 -1.19589) (xy 4.376867 -1.154564)
    (xy 4.392494 -1.143) (xy 4.403707 -1.164043) (xy 4.401103 -1.20291) (xy 4.406332 -1.258014)
    (xy 4.436232 -1.280695) (xy 4.484816 -1.274086) (xy 4.540406 -1.227233) (xy 4.595013 -1.148429)
    (xy 4.626545 -1.083157) (xy 4.642431 -1.014043) (xy 4.62177 -0.956089) (xy 4.559359 -0.898551)
    (xy 4.526342 -0.8763) (xy 4.465022 -0.828809) (xy 4.448102 -0.797697) (xy 4.470805 -0.78661)
    (xy 4.528351 -0.799197) (xy 4.591661 -0.826445) (xy 4.689715 -0.852967) (xy 4.774572 -0.834374)
    (xy 4.838273 -0.776083) (xy 4.872857 -0.683509) (xy 4.8768 -0.632459) (xy 4.861284 -0.544232)
    (xy 4.814337 -0.495809) (xy 4.735355 -0.486617) (xy 4.724632 -0.487984) (xy 4.670797 -0.490516)
    (xy 4.65056 -0.469507) (xy 4.6482 -0.440005) (xy 4.655321 -0.399626) (xy 4.686693 -0.386018)
    (xy 4.73075 -0.387254) (xy 4.780595 -0.388582) (xy 4.805885 -0.373891) (xy 4.816619 -0.330502)
    (xy 4.821053 -0.272751) (xy 4.822636 -0.1971) (xy 4.811357 -0.15623) (xy 4.782054 -0.134711)
    (xy 4.773806 -0.131456) (xy 4.738068 -0.115724) (xy 4.740121 -0.099503) (xy 4.78232 -0.069492)
    (xy 4.785102 -0.067669) (xy 4.827975 -0.03034) (xy 4.847295 0.019642) (xy 4.8514 0.090984)
    (xy 4.856302 0.165128) (xy 4.871333 0.191073) (xy 4.87973 0.188689) (xy 4.89603 0.1516)
    (xy 4.89707 0.076809) (xy 4.895067 0.055908) (xy 4.89599 -0.058218) (xy 4.917699 -0.160335)
    (xy 4.943591 -0.253663) (xy 4.955664 -0.322345) (xy 5.020381 -0.322345) (xy 5.024948 -0.245331)
    (xy 5.042183 -0.18268) (xy 5.059434 -0.144606) (xy 5.086651 -0.073554) (xy 5.095357 -0.014367)
    (xy 5.093353 -0.00206) (xy 5.094932 0.046193) (xy 5.114874 0.11955) (xy 5.133964 0.167945)
    (xy 5.189128 0.2921) (xy 5.221511 0.1905) (xy 5.242574 0.116312) (xy 5.254825 0.057714)
    (xy 5.255847 0.04756) (xy 5.239513 -0.003309) (xy 5.222162 -0.023357) (xy 5.201804 -0.049631)
    (xy 5.203312 -0.088161) (xy 5.224933 -0.150712) (xy 5.242612 -0.199464) (xy 5.247887 -0.238581)
    (xy 5.240149 -0.270089) (xy 5.349102 -0.270089) (xy 5.364143 -0.209332) (xy 5.382821 -0.163658)
    (xy 5.411546 -0.081018) (xy 5.408144 -0.034342) (xy 5.404617 -0.029978) (xy 5.400316 0.006881)
    (xy 5.428216 0.078568) (xy 5.461752 0.141015) (xy 5.544774 0.286122) (xy 5.586897 0.149411)
    (xy 5.61396 0.018987) (xy 5.623494 -0.125438) (xy 5.622949 -0.1524) (xy 5.61457 -0.25344)
    (xy 5.59347 -0.338664) (xy 5.55286 -0.430572) (xy 5.521206 -0.489502) (xy 5.470758 -0.576249)
    (xy 5.435585 -0.620374) (xy 5.410618 -0.620102) (xy 5.39079 -0.573659) (xy 5.371031 -0.479273)
    (xy 5.363124 -0.434177) (xy 5.349274 -0.33801) (xy 5.349102 -0.270089) (xy 5.240149 -0.270089)
    (xy 5.237413 -0.281228) (xy 5.207842 -0.340568) (xy 5.155828 -0.429763) (xy 5.15262 -0.435172)
    (xy 5.0419 -0.621854) (xy 5.026431 -0.431577) (xy 5.020381 -0.322345) (xy 4.955664 -0.322345)
    (xy 4.962104 -0.358976) (xy 4.972308 -0.463159) (xy 4.97327 -0.553098) (xy 4.964062 -0.61568)
    (xy 4.951455 -0.635955) (xy 4.932858 -0.657826) (xy 4.937979 -0.696015) (xy 4.963011 -0.754149)
    (xy 4.991933 -0.830901) (xy 5.015855 -0.923373) (xy 5.025541 -0.97783) (xy 5.089147 -0.97783)
    (xy 5.096196 -0.88422) (xy 5.116263 -0.793124) (xy 5.118508 -0.78617) (xy 5.142388 -0.703395)
    (xy 5.145544 -0.656151) (xy 5.131838 -0.635642) (xy 5.122494 -0.609512) (xy 5.142212 -0.55572)
    (xy 5.181786 -0.48622) (xy 5.227391 -0.417054) (xy 5.26444 -0.369702) (xy 5.282106 -0.3556)
    (xy 5.296352 -0.378397) (xy 5.311345 -0.436867) (xy 5.319395 -0.486313) (xy 5.325091 -0.565236)
    (xy 5.320565 -0.623287) (xy 5.313285 -0.640475) (xy 5.301492 -0.678333) (xy 5.299858 -0.745383)
    (xy 5.302214 -0.773738) (xy 5.303882 -0.852904) (xy 5.284835 -0.926555) (xy 5.241746 -1.013251)
    (xy 5.197767 -1.08305) (xy 5.158955 -1.130145) (xy 5.138706 -1.142975) (xy 5.111142 -1.120285)
    (xy 5.094376 -1.060878) (xy 5.089147 -0.97783) (xy 5.025541 -0.97783) (xy 5.032606 -1.017547)
    (xy 5.040016 -1.099399) (xy 5.035912 -1.15491) (xy 5.027327 -1.169557) (xy 5.021265 -1.201306)
    (xy 5.040121 -1.266232) (xy 5.053313 -1.29735) (xy 5.094236 -1.405517) (xy 5.101987 -1.479661)
    (xy 5.076472 -1.524314) (xy 5.04825 -1.537937) (xy 4.991019 -1.564384) (xy 4.921299 -1.608005)
    (xy 4.905686 -1.619325) (xy 4.820272 -1.683354) (xy 4.865155 -1.614854) (xy 4.893571 -1.564366)
    (xy 4.891863 -1.532459) (xy 4.870851 -1.507167) (xy 4.815446 -1.481211) (xy 4.757658 -1.495445)
    (xy 4.715757 -1.543644) (xy 4.709414 -1.562164) (xy 4.700718 -1.596814) (xy 4.7752 -1.596814)
    (xy 4.784635 -1.553603) (xy 4.804523 -1.534062) (xy 4.821978 -1.550035) (xy 4.815027 -1.591822)
    (xy 4.803457 -1.607503) (xy 4.780061 -1.619791) (xy 4.7752 -1.596814) (xy 4.700718 -1.596814)
    (xy 4.69431 -1.622341) (xy 4.594498 -1.570316) (xy 4.508962 -1.537474) (xy 4.435617 -1.52983)
    (xy 4.42921 -1.530808) (xy 4.372195 -1.528859) (xy 4.291142 -1.512534) (xy 4.208649 -1.487602)
    (xy 4.147312 -1.459829) (xy 4.144843 -1.458229) (xy 3.782329 -1.458229) (xy 3.7846 -1.4605)
    (xy 3.7719 -1.4732) (xy 3.7592 -1.4605) (xy 3.463161 -1.4605) (xy 3.454552 -1.468101)
    (xy 3.397765 -1.493924) (xy 3.325142 -1.514798) (xy 3.248068 -1.526059) (xy 3.215171 -1.526754)
    (xy 3.110655 -1.541411) (xy 3.02957 -1.574816) (xy 2.965283 -1.611332) (xy 2.933227 -1.621814)
    (xy 2.922203 -1.606579) (xy 2.921 -1.577911) (xy 2.902554 -1.522561) (xy 2.88077 -1.496834)
    (xy 2.829375 -1.479873) (xy 2.78284 -1.50211) (xy 2.75833 -1.553453) (xy 2.757686 -1.568172)
    (xy 2.801622 -1.568172) (xy 2.806312 -1.550027) (xy 2.833783 -1.536633) (xy 2.860762 -1.5556)
    (xy 2.868149 -1.592021) (xy 2.866707 -1.597164) (xy 2.841626 -1.610215) (xy 2.822495 -1.602226)
    (xy 2.801622 -1.568172) (xy 2.757686 -1.568172) (xy 2.75764 -1.569208) (xy 2.7566 -1.598965)
    (xy 2.742838 -1.607084) (xy 2.704518 -1.593342) (xy 2.64969 -1.56717) (xy 2.580006 -1.52727)
    (xy 2.547561 -1.485028) (xy 2.546669 -1.425163) (xy 2.567387 -1.346033) (xy 2.58257 -1.273954)
    (xy 2.594986 -1.174057) (xy 2.601369 -1.0795) (xy 2.619899 -0.918212) (xy 2.660296 -0.783679)
    (xy 2.661239 -0.781535) (xy 2.688025 -0.70901) (xy 2.695981 -0.659439) (xy 2.690757 -0.646685)
    (xy 2.673406 -0.610129) (xy 2.666019 -0.537306) (xy 2.667822 -0.441603) (xy 2.678044 -0.336406)
    (xy 2.695911 -0.235102) (xy 2.719136 -0.154994) (xy 2.74472 -0.074612) (xy 2.753905 -0.016067)
    (xy 2.749122 0.004237) (xy 2.738501 0.043558) (xy 2.739739 0.117732) (xy 2.750815 0.212744)
    (xy 2.769712 0.314577) (xy 2.794409 0.409218) (xy 2.815945 0.468005) (xy 2.844605 0.553596)
    (xy 2.837364 0.606256) (xy 2.792055 0.631033) (xy 2.744469 0.634611) (xy 2.669742 0.62654)
    (xy 2.636516 0.598435) (xy 2.640769 0.542715) (xy 2.664016 0.482945) (xy 2.699679 0.363672)
    (xy 2.701473 0.281694) (xy 2.685147 0.162323) (xy 2.672091 0.085392) (xy 2.660479 0.042796)
    (xy 2.648487 0.026431) (xy 2.643769 0.0254) (xy 2.622936 0.04711) (xy 2.591994 0.102801)
    (xy 2.557046 0.178309) (xy 2.5242 0.259473) (xy 2.499559 0.33213) (xy 2.489231 0.382117)
    (xy 2.4892 0.383935) (xy 2.500674 0.441767) (xy 2.528116 0.509579) (xy 2.55189 0.561762)
    (xy 2.546299 0.588254) (xy 2.506564 0.607821) (xy 2.502716 0.609289) (xy 2.44595 0.618064)
    (xy 2.38199 0.611615) (xy 2.330596 0.593909) (xy 2.3114 0.570867) (xy 2.321993 0.540593)
    (xy 2.347918 0.485736) (xy 2.352133 0.477507) (xy 2.375417 0.41222) (xy 2.379636 0.334614)
    (xy 2.364209 0.232813) (xy 2.334456 0.115678) (xy 2.316682 0.052487) (xy 2.375729 0.052487)
    (xy 2.389071 0.1143) (xy 2.414681 0.20666) (xy 2.434265 0.251798) (xy 2.453932 0.251819)
    (xy 2.47979 0.20883) (xy 2.504867 0.154228) (xy 2.53955 0.063238) (xy 2.547978 0.005974)
    (xy 2.542215 -0.007945) (xy 2.535974 -0.047979) (xy 2.557282 -0.09233) (xy 2.582697 -0.157433)
    (xy 2.601249 -0.25345) (xy 2.611119 -0.360747) (xy 2.61049 -0.459687) (xy 2.597801 -0.529972)
    (xy 2.584214 -0.557954) (xy 2.568448 -0.561005) (xy 2.543729 -0.533486) (xy 2.503284 -0.469756)
    (xy 2.481208 -0.432901) (xy 2.424685 -0.3312) (xy 2.395871 -0.256261) (xy 2.391977 -0.19422)
    (xy 2.410213 -0.131213) (xy 2.417271 -0.115069) (xy 2.433743 -0.06273) (xy 2.417998 -0.029582)
    (xy 2.404658 -0.018624) (xy 2.379107 0.009988) (xy 2.375729 0.052487) (xy 2.316682 0.052487)
    (xy 2.306266 0.015457) (xy 2.220251 0.166478) (xy 2.167177 0.266276) (xy 2.141088 0.338978)
    (xy 2.13977 0.399062) (xy 2.161008 0.461002) (xy 2.171848 0.482887) (xy 2.195261 0.535176)
    (xy 2.190712 0.563027) (xy 2.160818 0.583226) (xy 2.083251 0.608003) (xy 2.014006 0.588169)
    (xy 1.99577 0.576008) (xy 1.96698 0.549484) (xy 1.9653 0.519066) (xy 1.989881 0.464972)
    (xy 1.990916 0.46297) (xy 2.019072 0.397101) (xy 2.031921 0.344501) (xy 2.032 0.341754)
    (xy 2.024848 0.29273) (xy 2.006393 0.218596) (xy 1.981138 0.133372) (xy 1.953583 0.051081)
    (xy 1.928232 -0.014259) (xy 1.921093 -0.027418) (xy 2.000963 -0.027418) (xy 2.014009 0.040826)
    (xy 2.037228 0.125757) (xy 2.087778 0.289615) (xy 2.173013 0.13923) (xy 2.219929 0.048549)
    (xy 2.23705 -0.00664) (xy 2.228604 -0.029477) (xy 2.214799 -0.056435) (xy 2.229437 -0.110068)
    (xy 2.242479 -0.139061) (xy 2.271182 -0.213845) (xy 2.2856 -0.27999) (xy 2.286 -0.288726)
    (xy 2.280933 -0.353917) (xy 2.267955 -0.43551) (xy 2.250398 -0.518595) (xy 2.231592 -0.588261)
    (xy 2.220105 -0.616658) (xy 2.307559 -0.616658) (xy 2.309324 -0.553827) (xy 2.316484 -0.477298)
    (xy 2.327122 -0.403559) (xy 2.339324 -0.349101) (xy 2.35016 -0.3302) (xy 2.365989 -0.350414)
    (xy 2.399205 -0.403229) (xy 2.43957 -0.471946) (xy 2.487214 -0.56635) (xy 2.501205 -0.624008)
    (xy 2.495401 -0.638959) (xy 2.486849 -0.682796) (xy 2.507881 -0.766934) (xy 2.513577 -0.782963)
    (xy 2.536402 -0.870245) (xy 2.546566 -0.963026) (xy 2.544552 -1.048094) (xy 2.530842 -1.112237)
    (xy 2.505921 -1.142244) (xy 2.500413 -1.143) (xy 2.459401 -1.120336) (xy 2.415533 -1.06151)
    (xy 2.37541 -0.980269) (xy 2.345639 -0.890362) (xy 2.332823 -0.805539) (xy 2.332773 -0.794018)
    (xy 2.329728 -0.717691) (xy 2.319291 -0.66192) (xy 2.313102 -0.649301) (xy 2.307559 -0.616658)
    (xy 2.220105 -0.616658) (xy 2.21487 -0.629598) (xy 2.208624 -0.635) (xy 2.187919 -0.614333)
    (xy 2.15095 -0.559658) (xy 2.10503 -0.481964) (xy 2.096153 -0.465975) (xy 2.042992 -0.360119)
    (xy 2.015678 -0.278423) (xy 2.009124 -0.20475) (xy 2.009706 -0.19189) (xy 2.010459 -0.120175)
    (xy 2.004419 -0.070085) (xy 2.001422 -0.062465) (xy 2.000963 -0.027418) (xy 1.921093 -0.027418)
    (xy 1.909585 -0.048626) (xy 1.905955 -0.0508) (xy 1.887535 -0.029163) (xy 1.855638 0.028406)
    (xy 1.816193 0.110888) (xy 1.803177 0.14021) (xy 1.762557 0.23563) (xy 1.74053 0.299169)
    (xy 1.734882 0.345286) (xy 1.743396 0.388443) (xy 1.758747 0.43013) (xy 1.781427 0.50525)
    (xy 1.776031 0.548989) (xy 1.77002 0.556619) (xy 1.713859 0.581545) (xy 1.642872 0.576285)
    (xy 1.594711 0.55245) (xy 1.579929 0.534923) (xy 1.577145 0.508154) (xy 1.588884 0.464085)
    (xy 1.617675 0.394657) (xy 1.666045 0.291812) (xy 1.695378 0.231446) (xy 1.756012 0.103954)
    (xy 1.794575 0.013539) (xy 1.813603 -0.047165) (xy 1.815633 -0.085521) (xy 1.809832 -0.10074)
    (xy 1.800247 -0.135972) (xy 1.820113 -0.17849) (xy 1.864694 -0.230586) (xy 1.929536 -0.308438)
    (xy 1.993889 -0.400581) (xy 2.051927 -0.496478) (xy 2.097825 -0.585595) (xy 2.125758 -0.657397)
    (xy 2.129901 -0.701349) (xy 2.127446 -0.705769) (xy 2.126366 -0.744147) (xy 2.159816 -0.803807)
    (xy 2.221756 -0.875456) (xy 2.262798 -0.913996) (xy 2.291302 -0.950372) (xy 2.327045 -1.010004)
    (xy 2.362059 -1.077305) (xy 2.388375 -1.136686) (xy 2.398026 -1.172559) (xy 2.396797 -1.176137)
    (xy 2.397038 -1.20644) (xy 2.414819 -1.26723) (xy 2.434939 -1.318386) (xy 2.476287 -1.431179)
    (xy 2.486701 -1.507339) (xy 2.466437 -1.550331) (xy 2.452521 -1.55804) (xy 2.422212 -1.589764)
    (xy 2.392935 -1.650839) (xy 2.387066 -1.668708) (xy 2.379524 -1.730016) (xy 2.441703 -1.730016)
    (xy 2.44936 -1.663975) (xy 2.462588 -1.614758) (xy 2.47503 -1.6002) (xy 2.487121 -1.608907)
    (xy 2.568179 -1.608907) (xy 2.573011 -1.601046) (xy 2.607675 -1.611162) (xy 2.664184 -1.636861)
    (xy 2.668261 -1.638953) (xy 2.709531 -1.6637) (xy 2.794 -1.6637) (xy 2.8067 -1.651)
    (xy 2.8194 -1.6637) (xy 2.8067 -1.6764) (xy 2.794 -1.6637) (xy 2.709531 -1.6637)
    (xy 2.728077 -1.67482) (xy 2.739578 -1.695675) (xy 2.707913 -1.7018) (xy 2.674576 -1.690623)
    (xy 2.630585 -1.664252) (xy 2.590324 -1.633432) (xy 2.568179 -1.608907) (xy 2.487121 -1.608907)
    (xy 2.497586 -1.616442) (xy 2.541966 -1.657207) (xy 2.561492 -1.6764) (xy 2.611941 -1.714866)
    (xy 2.8702 -1.714866) (xy 2.891339 -1.683417) (xy 2.920386 -1.6764) (xy 2.974819 -1.663529)
    (xy 3.043138 -1.631926) (xy 3.053736 -1.625695) (xy 3.129646 -1.584533) (xy 3.168692 -1.57636)
    (xy 3.175 -1.587135) (xy 3.154135 -1.603878) (xy 3.09943 -1.635923) (xy 3.022723 -1.676338)
    (xy 3.0226 -1.6764) (xy 2.93921 -1.716047) (xy 2.891581 -1.731438) (xy 2.871959 -1.724532)
    (xy 2.8702 -1.714866) (xy 2.611941 -1.714866) (xy 2.636132 -1.73331) (xy 2.716469 -1.752372)
    (xy 2.728546 -1.7526) (xy 2.788097 -1.757326) (xy 2.818422 -1.768977) (xy 2.8194 -1.771785)
    (xy 2.797094 -1.79373) (xy 2.920438 -1.79373) (xy 3.066769 -1.712328) (xy 3.165801 -1.661425)
    (xy 3.232417 -1.640043) (xy 3.275393 -1.64797) (xy 3.303504 -1.684996) (xy 3.312036 -1.706429)
    (xy 3.321163 -1.774939) (xy 3.292925 -1.839532) (xy 3.234466 -1.892378) (xy 3.155353 -1.901549)
    (xy 3.053122 -1.867133) (xy 3.019427 -1.849365) (xy 2.920438 -1.79373) (xy 2.797094 -1.79373)
    (xy 2.796934 -1.793887) (xy 2.739914 -1.819181) (xy 2.663903 -1.842566) (xy 2.584466 -1.858942)
    (xy 2.54 -1.863352) (xy 2.479459 -1.861041) (xy 2.452386 -1.839495) (xy 2.442766 -1.793981)
    (xy 2.441703 -1.730016) (xy 2.379524 -1.730016) (xy 2.373654 -1.777719) (xy 2.400529 -1.867373)
    (xy 2.464815 -1.929146) (xy 2.477035 -1.935266) (xy 2.526823 -1.950051) (xy 2.579623 -1.942441)
    (xy 2.651393 -1.911804) (xy 2.760695 -1.858701) (xy 2.750064 -1.91431) (xy 2.750487 -1.916749)
    (xy 2.803752 -1.916749) (xy 2.809583 -1.893944) (xy 2.830987 -1.867346) (xy 2.860466 -1.882062)
    (xy 2.891048 -1.925263) (xy 2.8956 -1.946211) (xy 2.876921 -1.975141) (xy 2.838387 -1.979181)
    (xy 2.808116 -1.958093) (xy 2.803752 -1.916749) (xy 2.750487 -1.916749) (xy 2.761226 -1.978541)
    (xy 2.790004 -2.015684) (xy 2.850382 -2.045124) (xy 2.904453 -2.032288) (xy 2.93802 -1.985086)
    (xy 2.941141 -1.931489) (xy 2.93078 -1.860895) (xy 3.00844 -1.908253) (xy 3.095025 -1.943141)
    (xy 3.189033 -1.954127) (xy 3.271487 -1.940734) (xy 3.312847 -1.915924) (xy 3.361339 -1.834178)
    (xy 3.372205 -1.734063) (xy 3.356982 -1.666882) (xy 3.342004 -1.613229) (xy 3.352333 -1.577831)
    (xy 3.396173 -1.551159) (xy 3.4798 -1.524233) (xy 3.547128 -1.510135) (xy 3.622204 -1.501735)
    (xy 3.692555 -1.499153) (xy 3.745708 -1.502507) (xy 3.767657 -1.5113) (xy 3.8354 -1.5113)
    (xy 3.8481 -1.4986) (xy 3.8608 -1.5113) (xy 3.8481 -1.524) (xy 3.8354 -1.5113)
    (xy 3.767657 -1.5113) (xy 3.76919 -1.511914) (xy 3.762295 -1.52155) (xy 3.74081 -1.55495)
    (xy 3.744885 -1.572188) (xy 3.752204 -1.617641) (xy 3.745879 -1.652956) (xy 3.724243 -1.688052)
    (xy 3.67966 -1.69912) (xy 3.636924 -1.697179) (xy 3.571939 -1.697338) (xy 3.541822 -1.716544)
    (xy 3.535422 -1.735107) (xy 3.535799 -1.763989) (xy 3.561297 -1.771846) (xy 3.6206 -1.763418)
    (xy 3.682241 -1.755575) (xy 3.704861 -1.764945) (xy 3.703429 -1.780211) (xy 3.691132 -1.792817)
    (xy 3.761205 -1.792817) (xy 3.765875 -1.759873) (xy 3.774545 -1.75948) (xy 3.780491 -1.792817)
    (xy 3.862805 -1.792817) (xy 3.867475 -1.759873) (xy 3.876145 -1.75948) (xy 3.882209 -1.793475)
    (xy 3.878151 -1.808163) (xy 3.866872 -1.817784) (xy 3.862805 -1.792817) (xy 3.780491 -1.792817)
    (xy 3.780609 -1.793475) (xy 3.776551 -1.808163) (xy 3.765272 -1.817784) (xy 3.761205 -1.792817)
    (xy 3.691132 -1.792817) (xy 3.672114 -1.812312) (xy 3.630316 -1.829859) (xy 3.583828 -1.855679)
    (xy 3.571774 -1.884987) (xy 3.552905 -1.9177) (xy 3.7592 -1.9177) (xy 3.7719 -1.905)
    (xy 3.7846 -1.9177) (xy 3.7719 -1.9304) (xy 3.7592 -1.9177) (xy 3.552905 -1.9177)
    (xy 3.552848 -1.917798) (xy 3.487738 -1.938819) (xy 3.479822 -1.940151) (xy 3.410386 -1.959916)
    (xy 3.357656 -1.989848) (xy 3.331051 -2.021709) (xy 3.33999 -2.047262) (xy 3.351288 -2.05256)
    (xy 3.392163 -2.078459) (xy 3.444783 -2.12599) (xy 3.452888 -2.134472) (xy 3.538561 -2.205924)
    (xy 3.64387 -2.265439) (xy 3.748976 -2.303185) (xy 3.809832 -2.3114) (xy 3.884717 -2.298266)) (layer F.SilkS) (width 0.01))
  (fp_poly (pts (xy -4.450313 -2.300379) (xy -4.273478 -2.299394) (xy -4.133832 -2.297559) (xy -4.02684 -2.294718)
    (xy -3.947965 -2.290716) (xy -3.892671 -2.285396) (xy -3.856422 -2.278603) (xy -3.834681 -2.270181)
    (xy -3.824826 -2.262323) (xy -3.811174 -2.225865) (xy -3.795636 -2.151647) (xy -3.779523 -2.051077)
    (xy -3.764146 -1.935563) (xy -3.750818 -1.816513) (xy -3.740851 -1.705335) (xy -3.735556 -1.613436)
    (xy -3.736246 -1.552224) (xy -3.741034 -1.5337) (xy -3.769163 -1.531173) (xy -3.840805 -1.531394)
    (xy -3.948758 -1.534149) (xy -4.085824 -1.539223) (xy -4.2448 -1.546402) (xy -4.353003 -1.551911)
    (xy -4.563791 -1.562919) (xy -4.729311 -1.570029) (xy -4.855033 -1.571828) (xy -4.946429 -1.566905)
    (xy -5.00897 -1.553848) (xy -5.048126 -1.531245) (xy -5.069368 -1.497684) (xy -5.078168 -1.451754)
    (xy -5.079996 -1.392041) (xy -5.08 -1.3643) (xy -5.073523 -1.255151) (xy -5.055612 -1.176631)
    (xy -5.043976 -1.154205) (xy -5.028858 -1.137259) (xy -5.007431 -1.124166) (xy -4.974033 -1.114669)
    (xy -4.923001 -1.108508) (xy -4.84867 -1.105426) (xy -4.745379 -1.105165) (xy -4.607462 -1.107465)
    (xy -4.429257 -1.112068) (xy -4.2418 -1.1176) (xy -3.8227 -1.1303) (xy -3.824263 -1.016)
    (xy -3.828225 -0.886343) (xy -3.836068 -0.75063) (xy -3.84678 -0.618619) (xy -3.859349 -0.500069)
    (xy -3.872766 -0.404739) (xy -3.886019 -0.342387) (xy -3.896079 -0.322704) (xy -3.934033 -0.320323)
    (xy -4.006837 -0.323801) (xy -4.098975 -0.332382) (xy -4.1021 -0.332736) (xy -4.193957 -0.340444)
    (xy -4.313333 -0.346511) (xy -4.449798 -0.350853) (xy -4.592922 -0.353389) (xy -4.732276 -0.354034)
    (xy -4.857429 -0.352707) (xy -4.957951 -0.349325) (xy -5.023413 -0.343804) (xy -5.039823 -0.340183)
    (xy -5.062983 -0.318425) (xy -5.075575 -0.268669) (xy -5.079916 -0.180559) (xy -5.08 -0.160713)
    (xy -5.07493 -0.041775) (xy -5.056159 0.037508) (xy -5.018349 0.087586) (xy -4.956158 0.118913)
    (xy -4.933652 0.125746) (xy -4.84969 0.139727) (xy -4.724984 0.14815) (xy -4.569285 0.151009)
    (xy -4.392345 0.148301) (xy -4.203914 0.14002) (xy -4.014649 0.12624) (xy -3.873041 0.114063)
    (xy -3.773371 0.111194) (xy -3.709594 0.124423) (xy -3.675663 0.16054) (xy -3.665532 0.226337)
    (xy -3.673153 0.328604) (xy -3.692482 0.474131) (xy -3.69413 0.486205) (xy -3.713092 0.612826)
    (xy -3.733205 0.726114) (xy -3.752069 0.813702) (xy -3.767285 0.863225) (xy -3.767293 0.863241)
    (xy -3.774269 0.879247) (xy -3.7814 0.892653) (xy -3.79288 0.903624) (xy -3.812902 0.912326)
    (xy -3.845662 0.918922) (xy -3.895353 0.923578) (xy -3.96617 0.926459) (xy -4.062308 0.92773)
    (xy -4.187959 0.927556) (xy -4.34732 0.926101) (xy -4.544583 0.923531) (xy -4.783943 0.92001)
    (xy -5.069596 0.915704) (xy -5.0927 0.915358) (xy -6.0071 0.9017) (xy -6.002418 0.5461)
    (xy -6.001314 0.432378) (xy -6.000402 0.278273) (xy -5.999679 0.090978) (xy -5.999144 -0.122313)
    (xy -5.998793 -0.354406) (xy -5.998626 -0.59811) (xy -5.998639 -0.846229) (xy -5.998831 -1.091572)
    (xy -5.999199 -1.326944) (xy -5.999742 -1.545152) (xy -6.000457 -1.739003) (xy -6.001342 -1.901304)
    (xy -6.002395 -2.024861) (xy -6.003201 -2.0828) (xy -6.0071 -2.2987) (xy -4.933699 -2.300423)
    (xy -4.668875 -2.30067) (xy -4.450313 -2.300379)) (layer F.SilkS) (width 0.01))
  (fp_poly (pts (xy -2.378686 -2.308041) (xy -2.193775 -2.306227) (xy -2.021886 -2.303125) (xy -1.872133 -2.298764)
    (xy -1.75363 -2.293168) (xy -1.675492 -2.286364) (xy -1.672028 -2.285881) (xy -1.419466 -2.228555)
    (xy -1.200416 -2.133884) (xy -1.012668 -2.000644) (xy -0.860081 -1.835642) (xy -0.752826 -1.670823)
    (xy -0.680489 -1.498876) (xy -0.639294 -1.307423) (xy -0.625461 -1.08409) (xy -0.62542 -1.0668)
    (xy -0.645452 -0.791237) (xy -0.704544 -0.54602) (xy -0.802057 -0.3323) (xy -0.937353 -0.151227)
    (xy -1.109793 -0.003953) (xy -1.263885 0.083994) (xy -1.324749 0.112215) (xy -1.377164 0.1332)
    (xy -1.430288 0.148261) (xy -1.493276 0.158712) (xy -1.575283 0.165867) (xy -1.685466 0.17104)
    (xy -1.832979 0.175543) (xy -1.9177 0.1778) (xy -2.4003 0.1905) (xy -2.407694 0.2667)
    (xy -2.408699 0.323946) (xy -2.405469 0.416972) (xy -2.398654 0.530993) (xy -2.392591 0.6096)
    (xy -2.383735 0.746874) (xy -2.383243 0.845792) (xy -2.39108 0.90118) (xy -2.394658 0.90805)
    (xy -2.436948 0.927713) (xy -2.51705 0.935195) (xy -2.549461 0.934651) (xy -2.627077 0.931472)
    (xy -2.739812 0.926714) (xy -2.872034 0.921043) (xy -2.9972 0.915601) (xy -3.3147 0.9017)
    (xy -3.335388 -0.4953) (xy -3.339399 -0.76378) (xy -3.343326 -1.022304) (xy -3.347083 -1.265419)
    (xy -3.350582 -1.487667) (xy -3.351469 -1.542754) (xy -2.4384 -1.542754) (xy -2.4384 -1.06771)
    (xy -2.437535 -0.91725) (xy -2.435128 -0.784584) (xy -2.431463 -0.677954) (xy -2.426824 -0.605599)
    (xy -2.421495 -0.575762) (xy -2.421467 -0.575734) (xy -2.390589 -0.56885) (xy -2.320087 -0.563313)
    (xy -2.221131 -0.559768) (xy -2.128355 -0.5588) (xy -1.994085 -0.560615) (xy -1.897926 -0.567181)
    (xy -1.827284 -0.580179) (xy -1.769563 -0.601291) (xy -1.754266 -0.608751) (xy -1.663065 -0.682411)
    (xy -1.596282 -0.7924) (xy -1.556475 -0.929188) (xy -1.546203 -1.083246) (xy -1.568024 -1.245046)
    (xy -1.575559 -1.274261) (xy -1.625136 -1.371327) (xy -1.710212 -1.460125) (xy -1.815788 -1.526841)
    (xy -1.872556 -1.547873) (xy -1.980934 -1.566532) (xy -2.116539 -1.573679) (xy -2.257004 -1.568809)
    (xy -2.34315 -1.558498) (xy -2.4384 -1.542754) (xy -3.351469 -1.542754) (xy -3.353737 -1.683594)
    (xy -3.356459 -1.847744) (xy -3.358662 -1.97466) (xy -3.360258 -2.058888) (xy -3.360788 -2.082766)
    (xy -3.3655 -2.273231) (xy -3.2512 -2.290433) (xy -3.179561 -2.296891) (xy -3.066258 -2.301905)
    (xy -2.920404 -2.305501) (xy -2.751115 -2.307704) (xy -2.567504 -2.308542) (xy -2.378686 -2.308041)) (layer F.SilkS) (width 0.01))
  (fp_poly (pts (xy 0.481603 -2.302523) (xy 0.570715 -2.298961) (xy 0.62779 -2.292596) (xy 0.659071 -2.283027)
    (xy 0.670248 -2.271574) (xy 0.67319 -2.236098) (xy 0.673296 -2.158401) (xy 0.670763 -2.046973)
    (xy 0.665788 -1.910302) (xy 0.658569 -1.756877) (xy 0.658038 -1.746736) (xy 0.652459 -1.609914)
    (xy 0.647695 -1.431254) (xy 0.643848 -1.219717) (xy 0.641024 -0.984259) (xy 0.639325 -0.733838)
    (xy 0.638854 -0.477413) (xy 0.639717 -0.223943) (xy 0.639971 -0.186279) (xy 0.641211 0.042233)
    (xy 0.641578 0.254904) (xy 0.641121 0.446382) (xy 0.639888 0.611314) (xy 0.637928 0.744349)
    (xy 0.635289 0.840134) (xy 0.632022 0.893318) (xy 0.630047 0.902407) (xy 0.599402 0.909232)
    (xy 0.528464 0.915534) (xy 0.427742 0.921056) (xy 0.307742 0.92554) (xy 0.178971 0.928732)
    (xy 0.051936 0.930372) (xy -0.062854 0.930206) (xy -0.154894 0.927976) (xy -0.213677 0.923426)
    (xy -0.2159 0.923076) (xy -0.276492 0.908306) (xy -0.311646 0.89163) (xy -0.316305 0.861643)
    (xy -0.318029 0.788817) (xy -0.31692 0.681025) (xy -0.31308 0.546137) (xy -0.306609 0.392024)
    (xy -0.304716 0.353834) (xy -0.297981 0.18988) (xy -0.292255 -0.012479) (xy -0.291246 -0.0635)
    (xy 0 -0.0635) (xy 0.004477 -0.025045) (xy 0.026768 -0.00618) (xy 0.080163 0.000187)
    (xy 0.12065 0.000886) (xy 0.2413 0.001773) (xy 0.12065 0.10513) (xy 0.056952 0.167004)
    (xy 0.013229 0.223451) (xy 0 0.256643) (xy 0.004687 0.280115) (xy 0.025317 0.294459)
    (xy 0.071743 0.30187) (xy 0.153819 0.304548) (xy 0.2159 0.3048) (xy 0.320481 0.30414)
    (xy 0.384313 0.300288) (xy 0.417443 0.290432) (xy 0.429921 0.271764) (xy 0.4318 0.24442)
    (xy 0.427844 0.208407) (xy 0.407179 0.192572) (xy 0.356604 0.191547) (xy 0.31115 0.195361)
    (xy 0.1905 0.206682) (xy 0.320229 0.084291) (xy 0.400906 0.002126) (xy 0.439702 -0.056273)
    (xy 0.434757 -0.094611) (xy 0.384207 -0.116591) (xy 0.286191 -0.12592) (xy 0.214037 -0.127)
    (xy 0.110034 -0.126405) (xy 0.04673 -0.12262) (xy 0.014024 -0.112649) (xy 0.001814 -0.093496)
    (xy 0 -0.0635) (xy -0.291246 -0.0635) (xy -0.287737 -0.240855) (xy -0.285471 -0.417009)
    (xy -0.00954 -0.417009) (xy 0.013676 -0.319071) (xy 0.059727 -0.258542) (xy 0.143597 -0.205742)
    (xy 0.239071 -0.19737) (xy 0.291932 -0.208024) (xy 0.346698 -0.222392) (xy 0.373667 -0.228595)
    (xy 0.37383 -0.2286) (xy 0.388056 -0.2486) (xy 0.415405 -0.29775) (xy 0.420695 -0.307886)
    (xy 0.448266 -0.407476) (xy 0.440603 -0.462508) (xy 0.485018 -0.462508) (xy 0.487189 -0.413528)
    (xy 0.509605 -0.352611) (xy 0.510353 -0.351204) (xy 0.540372 -0.316449) (xy 0.562985 -0.322172)
    (xy 0.570843 -0.358054) (xy 0.556599 -0.413771) (xy 0.555938 -0.415237) (xy 0.527404 -0.463576)
    (xy 0.503922 -0.4826) (xy 0.485018 -0.462508) (xy 0.440603 -0.462508) (xy 0.434807 -0.504131)
    (xy 0.386825 -0.586219) (xy 0.310826 -0.64211) (xy 0.223504 -0.6604) (xy 0.119056 -0.641376)
    (xy 0.045131 -0.582545) (xy 0.012859 -0.525) (xy -0.00954 -0.417009) (xy -0.285471 -0.417009)
    (xy -0.284623 -0.482861) (xy -0.28311 -0.726108) (xy -0.283244 -0.834891) (xy -0.059925 -0.834891)
    (xy -0.046398 -0.803479) (xy -0.021797 -0.78105) (xy 0.021325 -0.756544) (xy 0.08634 -0.74256)
    (xy 0.185382 -0.736969) (xy 0.231413 -0.7366) (xy 0.331342 -0.737301) (xy 0.390908 -0.741606)
    (xy 0.420548 -0.752823) (xy 0.430698 -0.774259) (xy 0.4318 -0.8001) (xy 0.429333 -0.832741)
    (xy 0.414706 -0.851698) (xy 0.377073 -0.860686) (xy 0.305591 -0.863419) (xy 0.24638 -0.8636)
    (xy 0.14163 -0.867806) (xy 0.065045 -0.879295) (xy 0.030575 -0.893985) (xy -0.000014 -0.908006)
    (xy -0.033739 -0.87945) (xy -0.037215 -0.874935) (xy -0.059925 -0.834891) (xy -0.283244 -0.834891)
    (xy -0.283396 -0.958208) (xy -0.283515 -0.9779) (xy -0.283844 -1.0287) (xy 0 -1.0287)
    (xy 0.001982 -0.997951) (xy 0.014634 -0.979184) (xy 0.048013 -0.969442) (xy 0.112177 -0.965767)
    (xy 0.2159 -0.9652) (xy 0.320448 -0.965784) (xy 0.384255 -0.969505) (xy 0.417377 -0.979322)
    (xy 0.429873 -0.998194) (xy 0.4318 -1.0287) (xy 0.429817 -1.05945) (xy 0.417165 -1.078217)
    (xy 0.383786 -1.087959) (xy 0.319622 -1.091634) (xy 0.2159 -1.0922) (xy 0.111351 -1.091617)
    (xy 0.047544 -1.087896) (xy 0.014422 -1.078079) (xy 0.001926 -1.059207) (xy 0 -1.0287)
    (xy -0.283844 -1.0287) (xy -0.284894 -1.190419) (xy -0.286051 -1.368635) (xy -0.005216 -1.368635)
    (xy -0.003951 -1.257117) (xy 0 -1.155334) (xy 0.1143 -1.164425) (xy 0.185254 -1.173277)
    (xy 0.218813 -1.190337) (xy 0.228382 -1.223818) (xy 0.2286 -1.234458) (xy 0.217471 -1.281032)
    (xy 0.174625 -1.295223) (xy 0.1651 -1.2954) (xy 0.116343 -1.306305) (xy 0.101707 -1.347302)
    (xy 0.1016 -1.353821) (xy 0.121764 -1.427288) (xy 0.177255 -1.467774) (xy 0.2159 -1.4732)
    (xy 0.2807 -1.452619) (xy 0.321866 -1.402131) (xy 0.331967 -1.338618) (xy 0.303572 -1.278962)
    (xy 0.302073 -1.277434) (xy 0.292208 -1.248536) (xy 0.324805 -1.222087) (xy 0.379179 -1.212902)
    (xy 0.417197 -1.249492) (xy 0.436634 -1.328838) (xy 0.438727 -1.376708) (xy 0.42976 -1.458794)
    (xy 0.396048 -1.516804) (xy 0.370347 -1.541382) (xy 0.278455 -1.590813) (xy 0.178447 -1.596599)
    (xy 0.085414 -1.558658) (xy 0.065816 -1.54305) (xy 0.026292 -1.498995) (xy 0.003726 -1.445412)
    (xy -0.005216 -1.368635) (xy -0.286051 -1.368635) (xy -0.286249 -1.399077) (xy -0.287522 -1.595084)
    (xy -0.288656 -1.769652) (xy -0.289594 -1.913992) (xy -0.290279 -2.019314) (xy -0.290445 -2.0447)
    (xy -0.2921 -2.2987) (xy 0.182281 -2.302838) (xy 0.354206 -2.303682) (xy 0.481603 -2.302523)) (layer F.SilkS) (width 0.01))
  (fp_poly (pts (xy 3.848702 0.423271) (xy 3.873181 0.464293) (xy 3.8735 0.470247) (xy 3.854242 0.512871)
    (xy 3.811381 0.529902) (xy 3.767285 0.517366) (xy 3.7489 0.492395) (xy 3.745845 0.444003)
    (xy 3.755669 0.42517) (xy 3.801749 0.407253) (xy 3.848702 0.423271)) (layer F.SilkS) (width 0.01))
  (fp_poly (pts (xy 3.60948 0.3595) (xy 3.620121 0.401152) (xy 3.597652 0.439255) (xy 3.564746 0.452302)
    (xy 3.514677 0.44862) (xy 3.494814 0.435544) (xy 3.488443 0.386701) (xy 3.517506 0.346704)
    (xy 3.565582 0.335207) (xy 3.60948 0.3595)) (layer F.SilkS) (width 0.01))
  (fp_poly (pts (xy 4.108357 0.350227) (xy 4.13257 0.394798) (xy 4.126083 0.434092) (xy 4.088052 0.455512)
    (xy 4.036395 0.451355) (xy 3.99946 0.424657) (xy 3.997452 0.420316) (xy 3.99665 0.365188)
    (xy 4.036509 0.333542) (xy 4.062781 0.3302) (xy 4.108357 0.350227)) (layer F.SilkS) (width 0.01))
  (fp_poly (pts (xy 3.382559 -0.105045) (xy 3.415798 -0.068464) (xy 3.421959 -0.019338) (xy 3.419938 -0.013024)
    (xy 3.384803 0.020907) (xy 3.336182 0.020209) (xy 3.318933 0.008466) (xy 3.302051 -0.036456)
    (xy 3.313356 -0.086511) (xy 3.338242 -0.110073) (xy 3.382559 -0.105045)) (layer F.SilkS) (width 0.01))
  (fp_poly (pts (xy 4.271559 -0.105045) (xy 4.304798 -0.068464) (xy 4.310959 -0.019338) (xy 4.308938 -0.013024)
    (xy 4.273803 0.020907) (xy 4.225182 0.020209) (xy 4.207933 0.008466) (xy 4.191051 -0.036456)
    (xy 4.202356 -0.086511) (xy 4.227242 -0.110073) (xy 4.271559 -0.105045)) (layer F.SilkS) (width 0.01))
  (fp_poly (pts (xy 3.408523 -0.549148) (xy 3.4163 -0.508) (xy 3.400596 -0.45835) (xy 3.365233 -0.434841)
    (xy 3.327833 -0.444222) (xy 3.311905 -0.468023) (xy 3.306228 -0.527074) (xy 3.330445 -0.569575)
    (xy 3.371773 -0.57938) (xy 3.408523 -0.549148)) (layer F.SilkS) (width 0.01))
  (fp_poly (pts (xy 4.297523 -0.549148) (xy 4.3053 -0.508) (xy 4.289596 -0.45835) (xy 4.254233 -0.434841)
    (xy 4.216833 -0.444222) (xy 4.200905 -0.468023) (xy 4.195228 -0.527074) (xy 4.219445 -0.569575)
    (xy 4.260773 -0.57938) (xy 4.297523 -0.549148)) (layer F.SilkS) (width 0.01))
  (fp_poly (pts (xy 3.578803 -1.028374) (xy 3.598268 -1.010018) (xy 3.625868 -0.97083) (xy 3.613118 -0.934969)
    (xy 3.607857 -0.928375) (xy 3.572438 -0.895835) (xy 3.556 -0.889) (xy 3.525814 -0.906273)
    (xy 3.504142 -0.928375) (xy 3.485538 -0.96578) (xy 3.506867 -1.002956) (xy 3.513731 -1.010018)
    (xy 3.54944 -1.038495) (xy 3.578803 -1.028374)) (layer F.SilkS) (width 0.01))
  (fp_poly (pts (xy 4.086803 -1.028374) (xy 4.106268 -1.010018) (xy 4.133868 -0.97083) (xy 4.121118 -0.934969)
    (xy 4.115857 -0.928375) (xy 4.080438 -0.895835) (xy 4.064 -0.889) (xy 4.033814 -0.906273)
    (xy 4.012142 -0.928375) (xy 3.993538 -0.96578) (xy 4.014867 -1.002956) (xy 4.021731 -1.010018)
    (xy 4.05744 -1.038495) (xy 4.086803 -1.028374)) (layer F.SilkS) (width 0.01))
  (fp_poly (pts (xy 3.848702 -1.075329) (xy 3.873181 -1.034307) (xy 3.8735 -1.028353) (xy 3.854242 -0.985729)
    (xy 3.811381 -0.968698) (xy 3.767285 -0.981234) (xy 3.7489 -1.006205) (xy 3.745845 -1.054597)
    (xy 3.755669 -1.07343) (xy 3.801749 -1.091347) (xy 3.848702 -1.075329)) (layer F.SilkS) (width 0.01))
  (fp_poly (pts (xy 0.246114 -0.528886) (xy 0.29982 -0.512399) (xy 0.322562 -0.468639) (xy 0.326029 -0.445753)
    (xy 0.315818 -0.371482) (xy 0.274766 -0.323224) (xy 0.21621 -0.308282) (xy 0.153487 -0.33396)
    (xy 0.141514 -0.344715) (xy 0.104061 -0.408295) (xy 0.109948 -0.468342) (xy 0.15241 -0.512943)
    (xy 0.224681 -0.530187) (xy 0.246114 -0.528886)) (layer F.SilkS) (width 0.01))
  (fp_line (start 7.62 -3.81) (end -7.62 -3.81) (layer Dwgs.User) (width 0.12))
  (fp_line (start -7.62 -3.81) (end -7.62 3.81) (layer Dwgs.User) (width 0.12))
  (fp_line (start -7.62 3.81) (end 7.62 3.81) (layer Dwgs.User) (width 0.12))
  (fp_line (start 7.62 3.81) (end 7.62 -3.81) (layer Dwgs.User) (width 0.12))
  (fp_line (start 7.62 -3.81) (end 7.62 -2.54) (layer Dwgs.User) (width 0.12))
)
