(module MRQS_COP_L1 (layer F.Cu) (tedit 5FB8DDF0)
  (fp_text reference G*** (at 0 3) (layer F.SilkS) hide
    (effects (font (size 1.524 1.524) (thickness 0.3)))
  )
  (fp_text value LOGO (at 0 -3) (layer F.Cu) hide
    (effects (font (size 1.524 1.524) (thickness 0.3)))
  )
  (fp_poly (pts (xy 0 2.0066) (xy -1.9812 2.0066) (xy -1.9812 0.0254) (xy 0 0.0254)
    (xy 0 2.0066)) (layer B.Cu) (width 0.01))
  (fp_poly (pts (xy 2.0066 2.0066) (xy 0.508 2.0066) (xy 0.508 0.508) (xy 2.0066 0.508)
    (xy 2.0066 2.0066)) (layer B.Cu) (width 0.01))
  (fp_poly (pts (xy 2.0066 0) (xy 0.0254 0) (xy 0.0254 -1.7272) (xy 0.3048 -1.7272)
    (xy 0.3048 -0.254) (xy 0.4826 -0.254) (xy 0.484603 -0.88265) (xy 0.486607 -1.5113)
    (xy 0.905655 -0.2667) (xy 1.112483 -0.25133) (xy 1.324591 -0.881315) (xy 1.5367 -1.5113)
    (xy 1.543493 -0.88265) (xy 1.550287 -0.254) (xy 1.7272 -0.254) (xy 1.7272 -1.729736)
    (xy 1.438732 -1.7145) (xy 1.234105 -1.09855) (xy 1.178186 -0.931814) (xy 1.127004 -0.782205)
    (xy 1.082828 -0.656122) (xy 1.047931 -0.559965) (xy 1.024584 -0.50013) (xy 1.01544 -0.4826)
    (xy 1.002372 -0.505183) (xy 0.97784 -0.566333) (xy 0.945605 -0.656151) (xy 0.916488 -0.74295)
    (xy 0.87522 -0.867576) (xy 0.823261 -1.021684) (xy 0.766865 -1.186863) (xy 0.712283 -1.344705)
    (xy 0.705115 -1.36525) (xy 0.578655 -1.7272) (xy 0.3048 -1.7272) (xy 0.0254 -1.7272)
    (xy 0.0254 -1.9812) (xy 2.0066 -1.9812) (xy 2.0066 0)) (layer F.Cu) (width 0.01))
  (fp_poly (pts (xy -0.4826 -0.4826) (xy -1.9812 -0.4826) (xy -1.9812 -1.9812) (xy -0.4826 -1.9812)
    (xy -0.4826 -0.4826)) (layer F.Cu) (width 0.01))
)
