(module TEAR_DRP_TRANSD (layer F.Cu) (tedit 5EDF2A96)
  (fp_text reference TD_RF (at 3.5 0) (layer F.SilkS)
    (effects (font (size 1 1) (thickness 0.15)))
  )
  (fp_text value TEAR_DRP_TRANSD (at 0 -4.9) (layer F.Fab)
    (effects (font (size 1 1) (thickness 0.15)))
  )
  (fp_poly (pts (xy 1.5 -1.7) (xy 0.05 -0.1) (xy -0.05 -0.1) (xy -1.5 -1.7)
    (xy -1.5 -2.5) (xy 1.5 -2.5)) (layer F.Cu) (width 0))
  (pad 1 smd circle (at 0 -2.5) (size 3 3) (layers F.Cu))
  (pad 1 smd circle (at 0 -0.15) (size 0.15 0.15) (layers F.Cu))
)
