(kicad_sch (version 20230121) (generator eeschema)

  (uuid d3886a23-43aa-48ba-a52e-71592db00655)

  (paper "A4")

  (lib_symbols
    (symbol "SCVCO-rescue:R-pspice" (pin_numbers hide) (pin_names (offset 0)) (in_bom yes) (on_board yes)
      (property "Reference" "R" (at 2.032 0 90)
        (effects (font (size 1.27 1.27)))
      )
      (property "Value" "R-pspice" (at 0 0 90)
        (effects (font (size 1.27 1.27)))
      )
      (property "Footprint" "" (at 0 0 0)
        (effects (font (size 1.27 1.27)) hide)
      )
      (property "Datasheet" "" (at 0 0 0)
        (effects (font (size 1.27 1.27)) hide)
      )
      (symbol "R-pspice_0_1"
        (rectangle (start -1.016 3.81) (end 1.016 -3.81)
          (stroke (width 0) (type default))
          (fill (type none))
        )
      )
      (symbol "R-pspice_1_1"
        (pin passive line (at 0 6.35 270) (length 2.54)
          (name "~" (effects (font (size 1.27 1.27))))
          (number "1" (effects (font (size 1.27 1.27))))
        )
        (pin passive line (at 0 -6.35 90) (length 2.54)
          (name "~" (effects (font (size 1.27 1.27))))
          (number "2" (effects (font (size 1.27 1.27))))
        )
      )
    )
  )

  (junction (at 134.62 88.9) (diameter 0) (color 0 0 0 0)
    (uuid 4619e458-7e03-4ae2-9b58-d346e8f3831e)
  )
  (junction (at 143.51 74.93) (diameter 0) (color 0 0 0 0)
    (uuid 46824ae2-040b-4b6a-8470-fc479e691419)
  )
  (junction (at 152.4 88.9) (diameter 0) (color 0 0 0 0)
    (uuid 46ca7d63-50a1-4781-9348-027440df07c9)
  )
  (junction (at 143.51 119.38) (diameter 0) (color 0 0 0 0)
    (uuid 54a1d950-5a58-4436-b11e-7d19b99d82b1)
  )
  (junction (at 143.51 102.87) (diameter 0) (color 0 0 0 0)
    (uuid 989513fd-19b5-440e-9a9d-a0cb8bb35b7e)
  )

  (wire (pts (xy 152.4 87.63) (xy 152.4 88.9))
    (stroke (width 0) (type default))
    (uuid 0694d11e-b374-46fa-adff-fab9f6b656dd)
  )
  (wire (pts (xy 152.4 90.17) (xy 152.4 88.9))
    (stroke (width 0) (type default))
    (uuid 087b18a0-c786-4e5a-8469-c568988fd942)
  )
  (polyline (pts (xy 106.68 81.28) (xy 80.01 81.28))
    (stroke (width 0) (type default))
    (uuid 0c918de8-ce01-4df0-9933-9497ddd5718d)
  )

  (wire (pts (xy 91.44 90.17) (xy 96.52 90.17))
    (stroke (width 0) (type default))
    (uuid 1e66fbbf-df29-4052-b833-20155676e4ff)
  )
  (polyline (pts (xy 121.92 71.12) (xy 121.92 107.95))
    (stroke (width 0) (type default))
    (uuid 24072281-b150-43a7-b6a1-8c0b6af34fdb)
  )

  (wire (pts (xy 143.51 134.62) (xy 143.51 138.43))
    (stroke (width 0) (type default))
    (uuid 32580ac9-7469-4865-8670-a804cfdfe8d7)
  )
  (wire (pts (xy 143.51 74.93) (xy 143.51 82.55))
    (stroke (width 0) (type default))
    (uuid 4b14ff3b-22df-4edc-85da-dd70be8e6406)
  )
  (wire (pts (xy 143.51 102.87) (xy 152.4 102.87))
    (stroke (width 0) (type default))
    (uuid 5402ca85-de15-4a53-96af-ee0f4b24857f)
  )
  (wire (pts (xy 152.4 74.93) (xy 143.51 74.93))
    (stroke (width 0) (type default))
    (uuid 5838c119-e032-47d2-92ce-b9378697369e)
  )
  (polyline (pts (xy 80.01 97.79) (xy 106.68 97.79))
    (stroke (width 0) (type default))
    (uuid 58eda6ad-7b8d-45f4-a20d-7445161a1046)
  )

  (wire (pts (xy 132.08 88.9) (xy 134.62 88.9))
    (stroke (width 0) (type default))
    (uuid 59c993ce-61cf-4024-9bb6-84910be9f4a3)
  )
  (polyline (pts (xy 106.68 97.79) (xy 106.68 81.28))
    (stroke (width 0) (type default))
    (uuid 6595ee2f-91fc-47d0-942c-34924199b78c)
  )
  (polyline (pts (xy 80.01 81.28) (xy 80.01 97.79))
    (stroke (width 0) (type default))
    (uuid 671353e0-c4bb-4f1d-976c-bc5118352632)
  )

  (wire (pts (xy 134.62 119.38) (xy 143.51 119.38))
    (stroke (width 0) (type default))
    (uuid 79689b85-f533-437b-bd18-b53aa4b6f9a7)
  )
  (wire (pts (xy 134.62 90.17) (xy 134.62 88.9))
    (stroke (width 0) (type default))
    (uuid 7b2c7ebf-d54c-48ac-9e4e-ed6a617d5115)
  )
  (wire (pts (xy 91.44 85.09) (xy 96.52 85.09))
    (stroke (width 0) (type default))
    (uuid 877ecc8b-55de-4cd9-bf99-443b052568df)
  )
  (wire (pts (xy 143.51 74.93) (xy 134.62 74.93))
    (stroke (width 0) (type default))
    (uuid 8d2f0162-8fdc-4823-bde6-74449ac439f1)
  )
  (wire (pts (xy 91.44 93.98) (xy 96.52 93.98))
    (stroke (width 0) (type default))
    (uuid 9297a7b9-0814-4381-959d-4e90d9a2af60)
  )
  (polyline (pts (xy 167.64 107.95) (xy 167.64 71.12))
    (stroke (width 0) (type default))
    (uuid a1ad9bb5-2bd9-4f6c-aeb5-8e71b4fd8fcb)
  )

  (wire (pts (xy 149.86 88.9) (xy 152.4 88.9))
    (stroke (width 0) (type default))
    (uuid aac494b6-ee16-4af3-b27e-0dab4cf6a550)
  )
  (wire (pts (xy 143.51 100.33) (xy 143.51 102.87))
    (stroke (width 0) (type default))
    (uuid ad45d33e-c4b6-4b3d-a76b-49a7d04103d8)
  )
  (wire (pts (xy 143.51 119.38) (xy 143.51 121.92))
    (stroke (width 0) (type default))
    (uuid bee94d44-8e90-454b-8bb5-0888b484ffc5)
  )
  (wire (pts (xy 134.62 87.63) (xy 134.62 88.9))
    (stroke (width 0) (type default))
    (uuid c5eda66d-c99c-4319-bdf6-5db0bebd4587)
  )
  (polyline (pts (xy 167.64 71.12) (xy 121.92 71.12))
    (stroke (width 0) (type default))
    (uuid c9fa7730-7622-4826-81ba-6e6ddc14adb5)
  )

  (wire (pts (xy 152.4 88.9) (xy 154.94 88.9))
    (stroke (width 0) (type default))
    (uuid d152bc02-d845-43f8-b42a-66c76bf4f800)
  )
  (polyline (pts (xy 121.92 107.95) (xy 167.64 107.95))
    (stroke (width 0) (type default))
    (uuid df158441-8c0b-41d9-a7c5-ba17e97bcfbb)
  )

  (wire (pts (xy 134.62 88.9) (xy 137.16 88.9))
    (stroke (width 0) (type default))
    (uuid df21d569-cbda-428d-b00f-d7ecc24a5afd)
  )
  (wire (pts (xy 143.51 119.38) (xy 153.67 119.38))
    (stroke (width 0) (type default))
    (uuid edd9b842-cd70-4556-b070-48894ccc8a45)
  )
  (wire (pts (xy 134.62 102.87) (xy 143.51 102.87))
    (stroke (width 0) (type default))
    (uuid ee0ad174-0a97-47fd-9de8-577303422680)
  )

  (label "RF_IN" (at 134.62 119.38 180) (fields_autoplaced)
    (effects (font (size 1.27 1.27)) (justify right bottom))
    (uuid 07c976c5-fb60-43b8-9d15-e62b06378d82)
  )
  (label "RF_IN" (at 132.08 88.9 180) (fields_autoplaced)
    (effects (font (size 1.27 1.27)) (justify right bottom))
    (uuid 3206a362-1f11-4f91-9a75-b1b067c1810d)
  )
  (label "GND" (at 143.51 82.55 90) (fields_autoplaced)
    (effects (font (size 1.27 1.27)) (justify left bottom))
    (uuid 44fa541a-8eb0-4e4a-b97a-d178c2bc8b0c)
  )
  (label "RF_OUT" (at 153.67 119.38 0) (fields_autoplaced)
    (effects (font (size 1.27 1.27)) (justify left bottom))
    (uuid 6ced9d93-f74e-49ee-98b2-f686928f2e83)
  )
  (label "GND" (at 143.51 100.33 90) (fields_autoplaced)
    (effects (font (size 1.27 1.27)) (justify left bottom))
    (uuid 9c3b8aa1-cd33-466c-b19f-3cb3e93fccf3)
  )
  (label "GND" (at 143.51 138.43 270) (fields_autoplaced)
    (effects (font (size 1.27 1.27)) (justify right bottom))
    (uuid b4cf69e9-bf53-43ff-b9ad-3898f51679d0)
  )
  (label "RF_OUT" (at 96.52 90.17 0) (fields_autoplaced)
    (effects (font (size 1.27 1.27)) (justify left bottom))
    (uuid c0b309da-33fc-4322-8aab-469a7d043d93)
  )
  (label "RF_OUT" (at 154.94 88.9 0) (fields_autoplaced)
    (effects (font (size 1.27 1.27)) (justify left bottom))
    (uuid c9cdb688-258e-4d78-b63f-bb5e2bf5875a)
  )
  (label "GND" (at 96.52 93.98 0) (fields_autoplaced)
    (effects (font (size 1.27 1.27)) (justify left bottom))
    (uuid e4984454-e1eb-4d8f-80cf-292ec0fb1d8b)
  )
  (label "RF_IN" (at 96.52 85.09 0) (fields_autoplaced)
    (effects (font (size 1.27 1.27)) (justify left bottom))
    (uuid fd3d3fae-af4a-4ccd-b289-f0cc03927bf2)
  )

  (hierarchical_label "RF_OUT" (shape bidirectional) (at 91.44 90.17 180) (fields_autoplaced)
    (effects (font (size 1.27 1.27)) (justify right))
    (uuid 22445d87-af6b-499d-bec3-a4279f73a17f)
  )
  (hierarchical_label "RF_IN" (shape bidirectional) (at 91.44 85.09 180) (fields_autoplaced)
    (effects (font (size 1.27 1.27)) (justify right))
    (uuid 494e531d-4c79-481b-a4dc-1aff3a2302f7)
  )
  (hierarchical_label "GND" (shape bidirectional) (at 91.44 93.98 180) (fields_autoplaced)
    (effects (font (size 1.27 1.27)) (justify right))
    (uuid 600952b6-f6a9-49ae-91bb-6a83185c725e)
  )

  (symbol (lib_id "SCVCO-rescue:R-pspice") (at 152.4 81.28 0) (unit 1)
    (in_bom no) (on_board no) (dnp no)
    (uuid 00000000-0000-0000-0000-00005f334e58)
    (property "Reference" "R7" (at 147.193 81.28 90)
      (effects (font (size 1.27 1.27)))
    )
    (property "Value" "47" (at 149.5044 81.28 90)
      (effects (font (size 1.27 1.27)))
    )
    (property "Footprint" "Resistor_SMD:R_0603_1608Metric" (at 152.4 81.28 0)
      (effects (font (size 1.27 1.27)) hide)
    )
    (property "Datasheet" "~" (at 152.4 81.28 0)
      (effects (font (size 1.27 1.27)) hide)
    )
    (property "Sim.Enable" "0" (at 152.4 81.28 0)
      (effects (font (size 1.27 1.27)) hide)
    )
    (pin "1" (uuid 12f80ff0-efd4-464b-92d9-1f20a2a99bbf))
    (pin "2" (uuid f12556b4-8ab3-4fdf-a54a-b79c783e3aee))
    (instances
      (project "SCVCO"
        (path "/6c13d0cf-a7f0-4864-8544-9bb4f327050d/00000000-0000-0000-0000-00005f32ff84"
          (reference "R7") (unit 1)
        )
      )
    )
  )

  (symbol (lib_id "SCVCO-rescue:R-pspice") (at 152.4 96.52 0) (unit 1)
    (in_bom no) (on_board no) (dnp no)
    (uuid 00000000-0000-0000-0000-00005f334e5e)
    (property "Reference" "R8" (at 147.193 96.52 90)
      (effects (font (size 1.27 1.27)))
    )
    (property "Value" "47" (at 149.5044 96.52 90)
      (effects (font (size 1.27 1.27)))
    )
    (property "Footprint" "Resistor_SMD:R_0603_1608Metric" (at 152.4 96.52 0)
      (effects (font (size 1.27 1.27)) hide)
    )
    (property "Datasheet" "~" (at 152.4 96.52 0)
      (effects (font (size 1.27 1.27)) hide)
    )
    (property "Sim.Enable" "0" (at 152.4 96.52 0)
      (effects (font (size 1.27 1.27)) hide)
    )
    (pin "1" (uuid 2ab0e3bf-3cf2-4f27-b896-2c50c305be5e))
    (pin "2" (uuid 09c3fbff-95c5-41af-993f-d50c5f1e0fb5))
    (instances
      (project "SCVCO"
        (path "/6c13d0cf-a7f0-4864-8544-9bb4f327050d/00000000-0000-0000-0000-00005f32ff84"
          (reference "R8") (unit 1)
        )
      )
    )
  )

  (symbol (lib_id "SCVCO-rescue:R-pspice") (at 143.51 88.9 90) (unit 1)
    (in_bom no) (on_board no) (dnp no)
    (uuid 00000000-0000-0000-0000-00005f334e64)
    (property "Reference" "R5" (at 143.51 94.107 90)
      (effects (font (size 1.27 1.27)))
    )
    (property "Value" "47" (at 143.51 91.7956 90)
      (effects (font (size 1.27 1.27)))
    )
    (property "Footprint" "Resistor_SMD:R_0603_1608Metric" (at 143.51 88.9 0)
      (effects (font (size 1.27 1.27)) hide)
    )
    (property "Datasheet" "~" (at 143.51 88.9 0)
      (effects (font (size 1.27 1.27)) hide)
    )
    (property "Sim.Enable" "0" (at 143.51 88.9 0)
      (effects (font (size 1.27 1.27)) hide)
    )
    (pin "1" (uuid e3e39c2b-716c-4740-a86a-169053cfa5f0))
    (pin "2" (uuid b49f5e94-c561-4148-8c15-efba72108042))
    (instances
      (project "SCVCO"
        (path "/6c13d0cf-a7f0-4864-8544-9bb4f327050d/00000000-0000-0000-0000-00005f32ff84"
          (reference "R5") (unit 1)
        )
      )
    )
  )

  (symbol (lib_id "SCVCO-rescue:R-pspice") (at 134.62 81.28 0) (unit 1)
    (in_bom no) (on_board no) (dnp no)
    (uuid 00000000-0000-0000-0000-00005f334e6a)
    (property "Reference" "R3" (at 129.413 81.28 90)
      (effects (font (size 1.27 1.27)))
    )
    (property "Value" "47" (at 131.7244 81.28 90)
      (effects (font (size 1.27 1.27)))
    )
    (property "Footprint" "Resistor_SMD:R_0603_1608Metric" (at 134.62 81.28 0)
      (effects (font (size 1.27 1.27)) hide)
    )
    (property "Datasheet" "~" (at 134.62 81.28 0)
      (effects (font (size 1.27 1.27)) hide)
    )
    (property "Sim.Enable" "0" (at 134.62 81.28 0)
      (effects (font (size 1.27 1.27)) hide)
    )
    (pin "1" (uuid 1fadb8d5-8de9-4b03-84c6-9ff333ccf9a9))
    (pin "2" (uuid 887eefa3-d18b-4d1a-b080-7245b3506887))
    (instances
      (project "SCVCO"
        (path "/6c13d0cf-a7f0-4864-8544-9bb4f327050d/00000000-0000-0000-0000-00005f32ff84"
          (reference "R3") (unit 1)
        )
      )
    )
  )

  (symbol (lib_id "SCVCO-rescue:R-pspice") (at 134.62 96.52 0) (unit 1)
    (in_bom no) (on_board no) (dnp no)
    (uuid 00000000-0000-0000-0000-00005f334e70)
    (property "Reference" "R4" (at 129.413 96.52 90)
      (effects (font (size 1.27 1.27)))
    )
    (property "Value" "47" (at 131.7244 96.52 90)
      (effects (font (size 1.27 1.27)))
    )
    (property "Footprint" "Resistor_SMD:R_0603_1608Metric" (at 134.62 96.52 0)
      (effects (font (size 1.27 1.27)) hide)
    )
    (property "Datasheet" "~" (at 134.62 96.52 0)
      (effects (font (size 1.27 1.27)) hide)
    )
    (property "Sim.Enable" "0" (at 134.62 96.52 0)
      (effects (font (size 1.27 1.27)) hide)
    )
    (pin "1" (uuid fe0e60f2-0809-4e42-ab76-8da47c8f6534))
    (pin "2" (uuid af3ae170-e8de-4b8e-9c10-10e5793f74b8))
    (instances
      (project "SCVCO"
        (path "/6c13d0cf-a7f0-4864-8544-9bb4f327050d/00000000-0000-0000-0000-00005f32ff84"
          (reference "R4") (unit 1)
        )
      )
    )
  )

  (symbol (lib_id "SCVCO-rescue:R-pspice") (at 143.51 128.27 0) (unit 1)
    (in_bom yes) (on_board yes) (dnp no)
    (uuid 3b92972c-b4fa-4f03-b896-4e8f0638b63c)
    (property "Reference" "R6" (at 138.303 128.27 90)
      (effects (font (size 1.27 1.27)))
    )
    (property "Value" "47" (at 140.6144 128.27 90)
      (effects (font (size 1.27 1.27)))
    )
    (property "Footprint" "Resistor_SMD:R_0603_1608Metric" (at 143.51 128.27 0)
      (effects (font (size 1.27 1.27)) hide)
    )
    (property "Datasheet" "~" (at 143.51 128.27 0)
      (effects (font (size 1.27 1.27)) hide)
    )
    (property "Sim.Enable" "0" (at 143.51 128.27 0)
      (effects (font (size 1.27 1.27)) hide)
    )
    (pin "1" (uuid df94d6ff-59d3-4014-a564-883bbf5568ee))
    (pin "2" (uuid 420cad77-3e84-402c-8c91-3c5c49feeffd))
    (instances
      (project "SCVCO"
        (path "/6c13d0cf-a7f0-4864-8544-9bb4f327050d/00000000-0000-0000-0000-00005f32ff84"
          (reference "R6") (unit 1)
        )
      )
    )
  )
)
