(footprint "COACON_B" (version 20211014) (generator pcbnew)
  (layer "F.Cu")
  (tedit 0)
  (fp_text reference "REF**" (at 0 -2.032 unlocked) (layer "F.SilkS")
    (effects (font (size 1 1) (thickness 0.15)))
    (tstamp 37772280-05fe-4b34-a312-0229b7e4f7db)
  )
  (fp_text value "COACON_B" (at 0 2.54 unlocked) (layer "F.Fab")
    (effects (font (size 1 1) (thickness 0.15)))
    (tstamp acb9ed85-6e81-4ec8-b0cf-5ad486366362)
  )
  (fp_text user "${REFERENCE}" (at 0 3.81 unlocked) (layer "F.Fab")
    (effects (font (size 1 1) (thickness 0.15)))
    (tstamp 86e2604b-e466-4d19-bb4c-a93f71925295)
  )
  (fp_line (start 3.175 0) (end 3.81 -0.635) (layer "F.SilkS") (width 0.12) (tstamp c65a39e6-bfcd-4d9b-a921-2dc6651b712c))
  (fp_line (start -3.175 0) (end -3.81 -0.635) (layer "F.SilkS") (width 0.12) (tstamp dca6dfc3-80c8-41de-968e-75e441ba4310))
  (pad "1" thru_hole circle (at -1.27 0) (size 1 1) (drill 0.65) (property pad_prop_castellated) (layers *.Cu *.Mask) (tstamp 0826a382-9630-4af3-b540-99cad294b1c4))
  (pad "1" thru_hole circle (at -1.27 -0.762) (size 0.45 0.45) (drill 0.3) (property pad_prop_castellated) (layers *.Cu *.Mask) (tstamp 2d80c805-c418-4707-9310-54394896af0f))
  (pad "1" thru_hole circle (at 1.27 0) (size 1 1) (drill 0.65) (property pad_prop_castellated) (layers *.Cu *.Mask) (tstamp 64f8e78e-f040-46e7-b9f3-c5e70ab03f1e))
  (pad "1" thru_hole circle (at 1.27 -0.762) (size 0.45 0.45) (drill 0.3) (property pad_prop_castellated) (layers *.Cu *.Mask) (tstamp 7ba9809b-d167-436d-9a0d-0e90ba4b9e9d))
  (pad "2" thru_hole circle (at 0 0) (size 1 1) (drill 0.65) (property pad_prop_castellated) (layers *.Cu *.Mask) (tstamp 65045980-121d-4c40-9ee9-3159f7f74981))
  (pad "2" thru_hole circle (at 0 -0.762) (size 0.45 0.45) (drill 0.3) (property pad_prop_castellated) (layers *.Cu *.Mask) (tstamp a4d55ac7-ad18-40f4-ac09-59d23190ac59))
  (pad "3" thru_hole circle (at 2.54 0) (size 1 1) (drill 0.65) (property pad_prop_castellated) (layers *.Cu *.Mask) (tstamp 79f1082e-8240-407d-b794-74497f834849))
  (pad "3" thru_hole circle (at 2.54 -0.762) (size 0.45 0.45) (drill 0.3) (property pad_prop_castellated) (layers *.Cu *.Mask) (tstamp 8f19d558-58a2-43df-80d8-b2817c3a677b))
  (pad "4" thru_hole circle (at -2.54 0) (size 1 1) (drill 0.65) (property pad_prop_castellated) (layers *.Cu *.Mask) (tstamp 12ac57ab-b7b2-4146-880f-3acc532af7e2))
  (pad "4" thru_hole circle (at -2.54 -0.77) (size 0.45 0.45) (drill 0.3) (property pad_prop_castellated) (layers *.Cu *.Mask) (tstamp e4027b3a-1f14-41bf-9f2c-fed4ec484927))
  (model "${KIPRJMOD}/LIBS/COACON-COACON-X5.step"
    (offset (xyz -2.55 0 -1.67))
    (scale (xyz 1 1 1))
    (rotate (xyz 0 0 0))
  )
)
